{
  "version": 3,
  "targets": {
    ".NETCoreApp,Version=v2.1": {
      "SignClient/1.0.82": {
        "type": "package"
      }
    },
    ".NETCoreApp,Version=v2.1/any": {
      "SignClient/1.0.82": {
        "type": "package",
        "tools": {
          "tools/netcoreapp2.1/any/DotnetToolSettings.xml": {},
          "tools/netcoreapp2.1/any/Microsoft.Extensions.CommandLineUtils.dll": {},
          "tools/netcoreapp2.1/any/Microsoft.Extensions.Configuration.Abstractions.dll": {},
          "tools/netcoreapp2.1/any/Microsoft.Extensions.Configuration.EnvironmentVariables.dll": {},
          "tools/netcoreapp2.1/any/Microsoft.Extensions.Configuration.FileExtensions.dll": {},
          "tools/netcoreapp2.1/any/Microsoft.Extensions.Configuration.Json.dll": {},
          "tools/netcoreapp2.1/any/Microsoft.Extensions.Configuration.dll": {},
          "tools/netcoreapp2.1/any/Microsoft.Extensions.FileProviders.Abstractions.dll": {},
          "tools/netcoreapp2.1/any/Microsoft.Extensions.FileProviders.Physical.dll": {},
          "tools/netcoreapp2.1/any/Microsoft.Extensions.FileSystemGlobbing.dll": {},
          "tools/netcoreapp2.1/any/Microsoft.Extensions.Primitives.dll": {},
          "tools/netcoreapp2.1/any/Microsoft.IdentityModel.Clients.ActiveDirectory.Platform.dll": {},
          "tools/netcoreapp2.1/any/Microsoft.IdentityModel.Clients.ActiveDirectory.dll": {},
          "tools/netcoreapp2.1/any/Newtonsoft.Json.dll": {},
          "tools/netcoreapp2.1/any/Refit.dll": {},
          "tools/netcoreapp2.1/any/SignClient.deps.json": {},
          "tools/netcoreapp2.1/any/SignClient.dll": {},
          "tools/netcoreapp2.1/any/SignClient.pdb": {},
          "tools/netcoreapp2.1/any/SignClient.runtimeconfig.json": {},
          "tools/netcoreapp2.1/any/System.Runtime.CompilerServices.Unsafe.dll": {}
        }
      }
    }
  },
  "libraries": {
    "SignClient/1.0.82": {
      "sha512": "lZi+1jwicU3IE32iLRS4xB2AXkHpgpp6/EfFYtN/IfWqVWsDQwgAvp4lnMMQlPa/+GS9DaGyJyqvUwp4Yqf2Hg==",
      "type": "package",
      "path": "signclient/1.0.82",
      "hasTools": true,
      "files": [
        ".nupkg.metadata",
        ".signature.p7s",
        "signclient.1.0.82.nupkg.sha512",
        "signclient.nuspec",
        "tools/netcoreapp2.1/any/DotnetToolSettings.xml",
        "tools/netcoreapp2.1/any/Microsoft.Extensions.CommandLineUtils.dll",
        "tools/netcoreapp2.1/any/Microsoft.Extensions.Configuration.Abstractions.dll",
        "tools/netcoreapp2.1/any/Microsoft.Extensions.Configuration.EnvironmentVariables.dll",
        "tools/netcoreapp2.1/any/Microsoft.Extensions.Configuration.FileExtensions.dll",
        "tools/netcoreapp2.1/any/Microsoft.Extensions.Configuration.Json.dll",
        "tools/netcoreapp2.1/any/Microsoft.Extensions.Configuration.dll",
        "tools/netcoreapp2.1/any/Microsoft.Extensions.FileProviders.Abstractions.dll",
        "tools/netcoreapp2.1/any/Microsoft.Extensions.FileProviders.Physical.dll",
        "tools/netcoreapp2.1/any/Microsoft.Extensions.FileSystemGlobbing.dll",
        "tools/netcoreapp2.1/any/Microsoft.Extensions.Primitives.dll",
        "tools/netcoreapp2.1/any/Microsoft.IdentityModel.Clients.ActiveDirectory.Platform.dll",
        "tools/netcoreapp2.1/any/Microsoft.IdentityModel.Clients.ActiveDirectory.dll",
        "tools/netcoreapp2.1/any/Newtonsoft.Json.dll",
        "tools/netcoreapp2.1/any/Refit.dll",
        "tools/netcoreapp2.1/any/SignClient.deps.json",
        "tools/netcoreapp2.1/any/SignClient.dll",
        "tools/netcoreapp2.1/any/SignClient.pdb",
        "tools/netcoreapp2.1/any/SignClient.runtimeconfig.json",
        "tools/netcoreapp2.1/any/System.Runtime.CompilerServices.Unsafe.dll"
      ]
    }
  },
  "projectFileDependencyGroups": {
    ".NETCoreApp,Version=v2.1": [
      "signclient >= 1.0.82"
    ]
  },
  "packageFolders": {
    "/Users/mohsensanjari/Documents/sources/ci/ci/tools/.store/.stage/edmojf0h.ulh": {}
  },
  "project": {
    "version": "1.0.0",
    "restore": {
      "projectUniqueName": "/var/folders/2z/r4521q9n20xgcb_6c2gqd_p40000gn/T/h52riyxu.rxf/restore.csproj",
      "projectName": "restore",
      "projectPath": "/var/folders/2z/r4521q9n20xgcb_6c2gqd_p40000gn/T/h52riyxu.rxf/restore.csproj",
      "packagesPath": "/Users/mohsensanjari/Documents/sources/ci/ci/tools/.store/.stage/edmojf0h.ulh",
      "outputPath": "/Users/mohsensanjari/Documents/sources/ci/ci/tools/.store/.stage/edmojf0h.ulh/",
      "projectStyle": "DotnetToolReference",
      "configFilePaths": [
        "/Users/mohsensanjari/.nuget/NuGet/NuGet.Config"
      ],
      "originalTargetFrameworks": [
        "netcoreapp2.1"
      ],
      "sources": {
        "/Users/mohsensanjari/Documents/sources/ci/ci/.dotnet/sdk/NuGetFallbackFolder": {},
        "https://api.nuget.org/v3/index.json": {}
      },
      "frameworks": {
        "netcoreapp2.1": {
          "projectReferences": {}
        }
      },
      "warningProperties": {
        "warnAsError": [
          "NU1605"
        ]
      }
    },
    "frameworks": {
      "netcoreapp2.1": {
        "dependencies": {
          "signclient": {
            "target": "Package",
            "version": "[1.0.82, )"
          }
        },
        "imports": [
          "net461"
        ],
        "assetTargetFallback": true,
        "warn": true
      }
    },
    "runtimes": {
      "any": {
        "#import": []
      }
    }
  }
}