{
  "runtimeTarget": {
    "name": ".NETCoreApp,Version=v2.1",
    "signature": "2b565f3ee5b9e9522967b4a3954e76847a30ca48"
  },
  "compilationOptions": {},
  "targets": {
    ".NETCoreApp,Version=v2.1": {
      "Cake/0.33.0": {
        "dependencies": {
          "Autofac": "4.6.2",
          "Cake.Common": "0.33.0",
          "Cake.Core": "0.33.0",
          "Cake.NuGet": "0.33.0",
          "Microsoft.CodeAnalysis.CSharp.Scripting": "2.10.0"
        },
        "runtime": {
          "Cake.dll": {}
        }
      },
      "Autofac/4.6.2": {
        "dependencies": {
          "System.ComponentModel": "4.0.1"
        },
        "runtime": {
          "lib/netstandard1.1/Autofac.dll": {
            "assemblyVersion": "4.6.2.0",
            "fileVersion": "4.6.2.0"
          }
        }
      },
      "Microsoft.CodeAnalysis.Analyzers/2.6.1": {},
      "Microsoft.CodeAnalysis.Common/2.10.0": {
        "dependencies": {
          "Microsoft.CodeAnalysis.Analyzers": "2.6.1",
          "System.AppContext": "4.3.0",
          "System.Collections": "4.3.0",
          "System.Collections.Concurrent": "4.3.0",
          "System.Collections.Immutable": "1.5.0",
          "System.Console": "4.3.0",
          "System.Diagnostics.Debug": "4.3.0",
          "System.Diagnostics.FileVersionInfo": "4.3.0",
          "System.Diagnostics.StackTrace": "4.3.0",
          "System.Diagnostics.Tools": "4.3.0",
          "System.Dynamic.Runtime": "4.3.0",
          "System.Globalization": "4.3.0",
          "System.IO.Compression": "4.3.0",
          "System.IO.FileSystem": "4.3.0",
          "System.IO.FileSystem.Primitives": "4.3.0",
          "System.Linq": "4.3.0",
          "System.Linq.Expressions": "4.3.0",
          "System.Reflection": "4.3.0",
          "System.Reflection.Metadata": "1.6.0",
          "System.Resources.ResourceManager": "4.3.0",
          "System.Runtime": "4.3.0",
          "System.Runtime.Extensions": "4.3.0",
          "System.Runtime.InteropServices": "4.3.0",
          "System.Runtime.Numerics": "4.3.0",
          "System.Security.Cryptography.Algorithms": "4.3.0",
          "System.Security.Cryptography.Encoding": "4.3.0",
          "System.Security.Cryptography.X509Certificates": "4.3.0",
          "System.Text.Encoding": "4.3.0",
          "System.Text.Encoding.CodePages": "4.3.0",
          "System.Text.Encoding.Extensions": "4.3.0",
          "System.Threading": "4.3.0",
          "System.Threading.Tasks": "4.3.0",
          "System.Threading.Tasks.Extensions": "4.3.0",
          "System.Threading.Tasks.Parallel": "4.3.0",
          "System.Threading.Thread": "4.3.0",
          "System.ValueTuple": "4.3.0",
          "System.Xml.ReaderWriter": "4.3.0",
          "System.Xml.XDocument": "4.3.0",
          "System.Xml.XPath.XDocument": "4.3.0",
          "System.Xml.XmlDocument": "4.3.0"
        },
        "runtime": {
          "lib/netstandard1.3/Microsoft.CodeAnalysis.dll": {
            "assemblyVersion": "2.10.0.0",
            "fileVersion": "2.10.0.0"
          }
        },
        "resources": {
          "lib/netstandard1.3/cs/Microsoft.CodeAnalysis.resources.dll": {
            "locale": "cs"
          },
          "lib/netstandard1.3/de/Microsoft.CodeAnalysis.resources.dll": {
            "locale": "de"
          },
          "lib/netstandard1.3/es/Microsoft.CodeAnalysis.resources.dll": {
            "locale": "es"
          },
          "lib/netstandard1.3/fr/Microsoft.CodeAnalysis.resources.dll": {
            "locale": "fr"
          },
          "lib/netstandard1.3/it/Microsoft.CodeAnalysis.resources.dll": {
            "locale": "it"
          },
          "lib/netstandard1.3/ja/Microsoft.CodeAnalysis.resources.dll": {
            "locale": "ja"
          },
          "lib/netstandard1.3/ko/Microsoft.CodeAnalysis.resources.dll": {
            "locale": "ko"
          },
          "lib/netstandard1.3/pl/Microsoft.CodeAnalysis.resources.dll": {
            "locale": "pl"
          },
          "lib/netstandard1.3/pt-BR/Microsoft.CodeAnalysis.resources.dll": {
            "locale": "pt-BR"
          },
          "lib/netstandard1.3/ru/Microsoft.CodeAnalysis.resources.dll": {
            "locale": "ru"
          },
          "lib/netstandard1.3/tr/Microsoft.CodeAnalysis.resources.dll": {
            "locale": "tr"
          },
          "lib/netstandard1.3/zh-Hans/Microsoft.CodeAnalysis.resources.dll": {
            "locale": "zh-Hans"
          },
          "lib/netstandard1.3/zh-Hant/Microsoft.CodeAnalysis.resources.dll": {
            "locale": "zh-Hant"
          }
        }
      },
      "Microsoft.CodeAnalysis.CSharp/2.10.0": {
        "dependencies": {
          "Microsoft.CodeAnalysis.Common": "2.10.0"
        },
        "runtime": {
          "lib/netstandard1.3/Microsoft.CodeAnalysis.CSharp.dll": {
            "assemblyVersion": "2.10.0.0",
            "fileVersion": "2.10.0.0"
          }
        },
        "resources": {
          "lib/netstandard1.3/cs/Microsoft.CodeAnalysis.CSharp.resources.dll": {
            "locale": "cs"
          },
          "lib/netstandard1.3/de/Microsoft.CodeAnalysis.CSharp.resources.dll": {
            "locale": "de"
          },
          "lib/netstandard1.3/es/Microsoft.CodeAnalysis.CSharp.resources.dll": {
            "locale": "es"
          },
          "lib/netstandard1.3/fr/Microsoft.CodeAnalysis.CSharp.resources.dll": {
            "locale": "fr"
          },
          "lib/netstandard1.3/it/Microsoft.CodeAnalysis.CSharp.resources.dll": {
            "locale": "it"
          },
          "lib/netstandard1.3/ja/Microsoft.CodeAnalysis.CSharp.resources.dll": {
            "locale": "ja"
          },
          "lib/netstandard1.3/ko/Microsoft.CodeAnalysis.CSharp.resources.dll": {
            "locale": "ko"
          },
          "lib/netstandard1.3/pl/Microsoft.CodeAnalysis.CSharp.resources.dll": {
            "locale": "pl"
          },
          "lib/netstandard1.3/pt-BR/Microsoft.CodeAnalysis.CSharp.resources.dll": {
            "locale": "pt-BR"
          },
          "lib/netstandard1.3/ru/Microsoft.CodeAnalysis.CSharp.resources.dll": {
            "locale": "ru"
          },
          "lib/netstandard1.3/tr/Microsoft.CodeAnalysis.CSharp.resources.dll": {
            "locale": "tr"
          },
          "lib/netstandard1.3/zh-Hans/Microsoft.CodeAnalysis.CSharp.resources.dll": {
            "locale": "zh-Hans"
          },
          "lib/netstandard1.3/zh-Hant/Microsoft.CodeAnalysis.CSharp.resources.dll": {
            "locale": "zh-Hant"
          }
        }
      },
      "Microsoft.CodeAnalysis.CSharp.Scripting/2.10.0": {
        "dependencies": {
          "Microsoft.CodeAnalysis.CSharp": "2.10.0",
          "Microsoft.CodeAnalysis.Scripting.Common": "2.10.0"
        },
        "runtime": {
          "lib/netstandard1.3/Microsoft.CodeAnalysis.CSharp.Scripting.dll": {
            "assemblyVersion": "2.10.0.0",
            "fileVersion": "2.10.0.0"
          }
        },
        "resources": {
          "lib/netstandard1.3/cs/Microsoft.CodeAnalysis.CSharp.Scripting.resources.dll": {
            "locale": "cs"
          },
          "lib/netstandard1.3/de/Microsoft.CodeAnalysis.CSharp.Scripting.resources.dll": {
            "locale": "de"
          },
          "lib/netstandard1.3/es/Microsoft.CodeAnalysis.CSharp.Scripting.resources.dll": {
            "locale": "es"
          },
          "lib/netstandard1.3/fr/Microsoft.CodeAnalysis.CSharp.Scripting.resources.dll": {
            "locale": "fr"
          },
          "lib/netstandard1.3/it/Microsoft.CodeAnalysis.CSharp.Scripting.resources.dll": {
            "locale": "it"
          },
          "lib/netstandard1.3/ja/Microsoft.CodeAnalysis.CSharp.Scripting.resources.dll": {
            "locale": "ja"
          },
          "lib/netstandard1.3/ko/Microsoft.CodeAnalysis.CSharp.Scripting.resources.dll": {
            "locale": "ko"
          },
          "lib/netstandard1.3/pl/Microsoft.CodeAnalysis.CSharp.Scripting.resources.dll": {
            "locale": "pl"
          },
          "lib/netstandard1.3/pt-BR/Microsoft.CodeAnalysis.CSharp.Scripting.resources.dll": {
            "locale": "pt-BR"
          },
          "lib/netstandard1.3/ru/Microsoft.CodeAnalysis.CSharp.Scripting.resources.dll": {
            "locale": "ru"
          },
          "lib/netstandard1.3/tr/Microsoft.CodeAnalysis.CSharp.Scripting.resources.dll": {
            "locale": "tr"
          },
          "lib/netstandard1.3/zh-Hans/Microsoft.CodeAnalysis.CSharp.Scripting.resources.dll": {
            "locale": "zh-Hans"
          },
          "lib/netstandard1.3/zh-Hant/Microsoft.CodeAnalysis.CSharp.Scripting.resources.dll": {
            "locale": "zh-Hant"
          }
        }
      },
      "Microsoft.CodeAnalysis.Scripting.Common/2.10.0": {
        "dependencies": {
          "Microsoft.CodeAnalysis.Common": "2.10.0",
          "System.AppContext": "4.3.0",
          "System.Collections": "4.3.0",
          "System.Collections.Immutable": "1.5.0",
          "System.Diagnostics.Debug": "4.3.0",
          "System.Diagnostics.StackTrace": "4.3.0",
          "System.Diagnostics.Tools": "4.3.0",
          "System.Globalization": "4.3.0",
          "System.IO": "4.3.0",
          "System.IO.FileSystem": "4.3.0",
          "System.Linq": "4.3.0",
          "System.Linq.Expressions": "4.3.0",
          "System.Reflection": "4.3.0",
          "System.Reflection.Extensions": "4.3.0",
          "System.Resources.ResourceManager": "4.3.0",
          "System.Runtime": "4.3.0",
          "System.Runtime.Extensions": "4.3.0",
          "System.Runtime.InteropServices": "4.3.0",
          "System.Threading": "4.3.0",
          "System.Threading.Tasks": "4.3.0"
        },
        "runtime": {
          "lib/netstandard1.3/Microsoft.CodeAnalysis.Scripting.dll": {
            "assemblyVersion": "2.10.0.0",
            "fileVersion": "2.10.0.0"
          }
        },
        "resources": {
          "lib/netstandard1.3/cs/Microsoft.CodeAnalysis.Scripting.resources.dll": {
            "locale": "cs"
          },
          "lib/netstandard1.3/de/Microsoft.CodeAnalysis.Scripting.resources.dll": {
            "locale": "de"
          },
          "lib/netstandard1.3/es/Microsoft.CodeAnalysis.Scripting.resources.dll": {
            "locale": "es"
          },
          "lib/netstandard1.3/fr/Microsoft.CodeAnalysis.Scripting.resources.dll": {
            "locale": "fr"
          },
          "lib/netstandard1.3/it/Microsoft.CodeAnalysis.Scripting.resources.dll": {
            "locale": "it"
          },
          "lib/netstandard1.3/ja/Microsoft.CodeAnalysis.Scripting.resources.dll": {
            "locale": "ja"
          },
          "lib/netstandard1.3/ko/Microsoft.CodeAnalysis.Scripting.resources.dll": {
            "locale": "ko"
          },
          "lib/netstandard1.3/pl/Microsoft.CodeAnalysis.Scripting.resources.dll": {
            "locale": "pl"
          },
          "lib/netstandard1.3/pt-BR/Microsoft.CodeAnalysis.Scripting.resources.dll": {
            "locale": "pt-BR"
          },
          "lib/netstandard1.3/ru/Microsoft.CodeAnalysis.Scripting.resources.dll": {
            "locale": "ru"
          },
          "lib/netstandard1.3/tr/Microsoft.CodeAnalysis.Scripting.resources.dll": {
            "locale": "tr"
          },
          "lib/netstandard1.3/zh-Hans/Microsoft.CodeAnalysis.Scripting.resources.dll": {
            "locale": "zh-Hans"
          },
          "lib/netstandard1.3/zh-Hant/Microsoft.CodeAnalysis.Scripting.resources.dll": {
            "locale": "zh-Hant"
          }
        }
      },
      "Microsoft.DotNet.PlatformAbstractions/2.0.4": {
        "dependencies": {
          "System.AppContext": "4.3.0",
          "System.Collections": "4.3.0",
          "System.IO": "4.3.0",
          "System.IO.FileSystem": "4.3.0",
          "System.Reflection.TypeExtensions": "4.3.0",
          "System.Runtime.Extensions": "4.3.0",
          "System.Runtime.InteropServices": "4.3.0",
          "System.Runtime.InteropServices.RuntimeInformation": "4.0.0"
        },
        "runtime": {
          "lib/netstandard1.3/Microsoft.DotNet.PlatformAbstractions.dll": {
            "assemblyVersion": "2.0.4.0",
            "fileVersion": "2.0.4.0"
          }
        }
      },
      "Microsoft.Extensions.DependencyModel/2.0.4": {
        "dependencies": {
          "Microsoft.DotNet.PlatformAbstractions": "2.0.4",
          "Newtonsoft.Json": "11.0.2",
          "System.Diagnostics.Debug": "4.3.0",
          "System.Dynamic.Runtime": "4.3.0",
          "System.Linq": "4.3.0"
        },
        "runtime": {
          "lib/netstandard1.6/Microsoft.Extensions.DependencyModel.dll": {
            "assemblyVersion": "2.0.4.0",
            "fileVersion": "2.0.4.0"
          }
        }
      },
      "Microsoft.Win32.Primitives/4.3.0": {
        "dependencies": {
          "System.Runtime": "4.3.0"
        }
      },
      "Microsoft.Win32.Registry/4.4.0": {
        "dependencies": {
          "System.Security.AccessControl": "4.4.0",
          "System.Security.Principal.Windows": "4.4.0"
        },
        "runtimeTargets": {
          "runtime/unix/lib/_._": {
            "rid": "unix",
            "assetType": "runtime"
          },
          "runtime/win/lib/_._": {
            "rid": "win",
            "assetType": "runtime"
          }
        }
      },
      "Newtonsoft.Json/11.0.2": {
        "runtime": {
          "lib/netstandard2.0/Newtonsoft.Json.dll": {
            "assemblyVersion": "11.0.0.0",
            "fileVersion": "11.0.2.21924"
          }
        }
      },
      "NuGet.Commands/4.9.2": {
        "dependencies": {
          "NuGet.Credentials": "4.9.2",
          "NuGet.ProjectModel": "4.9.2"
        },
        "runtime": {
          "lib/netstandard1.6/NuGet.Commands.dll": {
            "assemblyVersion": "4.9.2.0",
            "fileVersion": "4.9.2.5706"
          }
        }
      },
      "NuGet.Common/4.9.2": {
        "dependencies": {
          "NuGet.Frameworks": "4.9.2",
          "System.Diagnostics.Process": "4.3.0",
          "System.Threading.Thread": "4.3.0"
        },
        "runtime": {
          "lib/netstandard1.6/NuGet.Common.dll": {
            "assemblyVersion": "4.9.2.0",
            "fileVersion": "4.9.2.5706"
          }
        }
      },
      "NuGet.Configuration/4.9.2": {
        "dependencies": {
          "NuGet.Common": "4.9.2",
          "System.Security.Cryptography.ProtectedData": "4.3.0"
        },
        "runtime": {
          "lib/netstandard1.6/NuGet.Configuration.dll": {
            "assemblyVersion": "4.9.2.0",
            "fileVersion": "4.9.2.5706"
          }
        }
      },
      "NuGet.Credentials/4.9.2": {
        "dependencies": {
          "NuGet.Protocol": "4.9.2",
          "System.Runtime.Serialization.Formatters": "4.3.0"
        },
        "runtime": {
          "lib/netstandard1.6/NuGet.Credentials.dll": {
            "assemblyVersion": "4.9.2.0",
            "fileVersion": "4.9.2.5706"
          }
        }
      },
      "NuGet.DependencyResolver.Core/4.9.2": {
        "dependencies": {
          "NuGet.LibraryModel": "4.9.2",
          "NuGet.Protocol": "4.9.2"
        },
        "runtime": {
          "lib/netstandard1.6/NuGet.DependencyResolver.Core.dll": {
            "assemblyVersion": "4.9.2.0",
            "fileVersion": "4.9.2.5706"
          }
        }
      },
      "NuGet.Frameworks/4.9.2": {
        "runtime": {
          "lib/netstandard1.6/NuGet.Frameworks.dll": {
            "assemblyVersion": "4.9.2.0",
            "fileVersion": "4.9.2.5706"
          }
        }
      },
      "NuGet.LibraryModel/4.9.2": {
        "dependencies": {
          "NuGet.Common": "4.9.2",
          "NuGet.Versioning": "4.9.2"
        },
        "runtime": {
          "lib/netstandard1.6/NuGet.LibraryModel.dll": {
            "assemblyVersion": "4.9.2.0",
            "fileVersion": "4.9.2.5706"
          }
        }
      },
      "NuGet.PackageManagement.NetStandard/4.9.2": {
        "dependencies": {
          "NuGet.Commands": "4.9.2",
          "NuGet.Resolver": "4.9.2"
        },
        "runtime": {
          "lib/netstandard1.6/NuGet.PackageManagement.dll": {
            "assemblyVersion": "4.9.2.0",
            "fileVersion": "4.9.2.0"
          }
        }
      },
      "NuGet.Packaging/4.9.2": {
        "dependencies": {
          "Newtonsoft.Json": "11.0.2",
          "NuGet.Configuration": "4.9.2",
          "NuGet.Packaging.Core": "4.9.2",
          "System.Dynamic.Runtime": "4.3.0"
        },
        "runtime": {
          "lib/netstandard1.6/NuGet.Packaging.dll": {
            "assemblyVersion": "4.9.2.0",
            "fileVersion": "4.9.2.5706"
          }
        }
      },
      "NuGet.Packaging.Core/4.9.2": {
        "dependencies": {
          "NuGet.Common": "4.9.2",
          "NuGet.Versioning": "4.9.2"
        },
        "runtime": {
          "lib/netstandard1.6/NuGet.Packaging.Core.dll": {
            "assemblyVersion": "4.9.2.0",
            "fileVersion": "4.9.2.5706"
          }
        }
      },
      "NuGet.ProjectModel/4.9.2": {
        "dependencies": {
          "NuGet.DependencyResolver.Core": "4.9.2",
          "System.Dynamic.Runtime": "4.3.0",
          "System.Threading.Thread": "4.3.0"
        },
        "runtime": {
          "lib/netstandard1.6/NuGet.ProjectModel.dll": {
            "assemblyVersion": "4.9.2.0",
            "fileVersion": "4.9.2.5706"
          }
        }
      },
      "NuGet.Protocol/4.9.2": {
        "dependencies": {
          "NuGet.Configuration": "4.9.2",
          "NuGet.Packaging": "4.9.2",
          "System.Dynamic.Runtime": "4.3.0"
        },
        "runtime": {
          "lib/netstandard1.6/NuGet.Protocol.dll": {
            "assemblyVersion": "4.9.2.0",
            "fileVersion": "4.9.2.5706"
          }
        }
      },
      "NuGet.Resolver/4.9.2": {
        "dependencies": {
          "NuGet.Protocol": "4.9.2"
        },
        "runtime": {
          "lib/netstandard1.6/NuGet.Resolver.dll": {
            "assemblyVersion": "4.9.2.0",
            "fileVersion": "4.9.2.5706"
          }
        }
      },
      "NuGet.Versioning/4.9.2": {
        "runtime": {
          "lib/netstandard1.6/NuGet.Versioning.dll": {
            "assemblyVersion": "4.9.2.0",
            "fileVersion": "4.9.2.5706"
          }
        }
      },
      "runtime.debian.8-x64.runtime.native.System.Security.Cryptography.OpenSsl/4.3.0": {
        "runtimeTargets": {
          "runtime/debian.8-x64/native/_._": {
            "rid": "debian.8-x64",
            "assetType": "native"
          }
        }
      },
      "runtime.fedora.23-x64.runtime.native.System.Security.Cryptography.OpenSsl/4.3.0": {
        "runtimeTargets": {
          "runtime/fedora.23-x64/native/_._": {
            "rid": "fedora.23-x64",
            "assetType": "native"
          }
        }
      },
      "runtime.fedora.24-x64.runtime.native.System.Security.Cryptography.OpenSsl/4.3.0": {
        "runtimeTargets": {
          "runtime/fedora.24-x64/native/_._": {
            "rid": "fedora.24-x64",
            "assetType": "native"
          }
        }
      },
      "runtime.native.System/4.3.0": {},
      "runtime.native.System.IO.Compression/4.3.0": {},
      "runtime.native.System.Net.Http/4.3.0": {},
      "runtime.native.System.Security.Cryptography.Apple/4.3.0": {
        "dependencies": {
          "runtime.osx.10.10-x64.runtime.native.System.Security.Cryptography.Apple": "4.3.0"
        }
      },
      "runtime.native.System.Security.Cryptography.OpenSsl/4.3.0": {
        "dependencies": {
          "runtime.debian.8-x64.runtime.native.System.Security.Cryptography.OpenSsl": "4.3.0",
          "runtime.fedora.23-x64.runtime.native.System.Security.Cryptography.OpenSsl": "4.3.0",
          "runtime.fedora.24-x64.runtime.native.System.Security.Cryptography.OpenSsl": "4.3.0",
          "runtime.opensuse.13.2-x64.runtime.native.System.Security.Cryptography.OpenSsl": "4.3.0",
          "runtime.opensuse.42.1-x64.runtime.native.System.Security.Cryptography.OpenSsl": "4.3.0",
          "runtime.osx.10.10-x64.runtime.native.System.Security.Cryptography.OpenSsl": "4.3.0",
          "runtime.rhel.7-x64.runtime.native.System.Security.Cryptography.OpenSsl": "4.3.0",
          "runtime.ubuntu.14.04-x64.runtime.native.System.Security.Cryptography.OpenSsl": "4.3.0",
          "runtime.ubuntu.16.04-x64.runtime.native.System.Security.Cryptography.OpenSsl": "4.3.0",
          "runtime.ubuntu.16.10-x64.runtime.native.System.Security.Cryptography.OpenSsl": "4.3.0"
        }
      },
      "runtime.opensuse.13.2-x64.runtime.native.System.Security.Cryptography.OpenSsl/4.3.0": {
        "runtimeTargets": {
          "runtime/opensuse.13.2-x64/native/_._": {
            "rid": "opensuse.13.2-x64",
            "assetType": "native"
          }
        }
      },
      "runtime.opensuse.42.1-x64.runtime.native.System.Security.Cryptography.OpenSsl/4.3.0": {
        "runtimeTargets": {
          "runtime/opensuse.42.1-x64/native/_._": {
            "rid": "opensuse.42.1-x64",
            "assetType": "native"
          }
        }
      },
      "runtime.osx.10.10-x64.runtime.native.System.Security.Cryptography.Apple/4.3.0": {
        "runtimeTargets": {
          "runtime/osx.10.10-x64/native/_._": {
            "rid": "osx.10.10-x64",
            "assetType": "native"
          }
        }
      },
      "runtime.osx.10.10-x64.runtime.native.System.Security.Cryptography.OpenSsl/4.3.0": {
        "runtimeTargets": {
          "runtime/osx.10.10-x64/native/_._": {
            "rid": "osx.10.10-x64",
            "assetType": "native"
          }
        }
      },
      "runtime.rhel.7-x64.runtime.native.System.Security.Cryptography.OpenSsl/4.3.0": {
        "runtimeTargets": {
          "runtime/rhel.7-x64/native/_._": {
            "rid": "rhel.7-x64",
            "assetType": "native"
          }
        }
      },
      "runtime.ubuntu.14.04-x64.runtime.native.System.Security.Cryptography.OpenSsl/4.3.0": {
        "runtimeTargets": {
          "runtime/ubuntu.14.04-x64/native/_._": {
            "rid": "ubuntu.14.04-x64",
            "assetType": "native"
          }
        }
      },
      "runtime.ubuntu.16.04-x64.runtime.native.System.Security.Cryptography.OpenSsl/4.3.0": {
        "runtimeTargets": {
          "runtime/ubuntu.16.04-x64/native/_._": {
            "rid": "ubuntu.16.04-x64",
            "assetType": "native"
          }
        }
      },
      "runtime.ubuntu.16.10-x64.runtime.native.System.Security.Cryptography.OpenSsl/4.3.0": {
        "runtimeTargets": {
          "runtime/ubuntu.16.10-x64/native/_._": {
            "rid": "ubuntu.16.10-x64",
            "assetType": "native"
          }
        }
      },
      "System.AppContext/4.3.0": {
        "dependencies": {
          "System.Runtime": "4.3.0"
        }
      },
      "System.Buffers/4.3.0": {
        "dependencies": {
          "System.Diagnostics.Debug": "4.3.0",
          "System.Diagnostics.Tracing": "4.3.0",
          "System.Resources.ResourceManager": "4.3.0",
          "System.Runtime": "4.3.0",
          "System.Threading": "4.3.0"
        }
      },
      "System.Collections/4.3.0": {
        "dependencies": {
          "System.Runtime": "4.3.0"
        }
      },
      "System.Collections.Concurrent/4.3.0": {
        "dependencies": {
          "System.Collections": "4.3.0",
          "System.Diagnostics.Debug": "4.3.0",
          "System.Diagnostics.Tracing": "4.3.0",
          "System.Globalization": "4.3.0",
          "System.Reflection": "4.3.0",
          "System.Resources.ResourceManager": "4.3.0",
          "System.Runtime": "4.3.0",
          "System.Runtime.Extensions": "4.3.0",
          "System.Threading": "4.3.0",
          "System.Threading.Tasks": "4.3.0"
        }
      },
      "System.Collections.Immutable/1.5.0": {},
      "System.ComponentModel/4.0.1": {
        "dependencies": {
          "System.Runtime": "4.3.0"
        }
      },
      "System.Console/4.3.0": {
        "dependencies": {
          "System.IO": "4.3.0",
          "System.Runtime": "4.3.0",
          "System.Text.Encoding": "4.3.0"
        }
      },
      "System.Diagnostics.Debug/4.3.0": {
        "dependencies": {
          "System.Runtime": "4.3.0"
        }
      },
      "System.Diagnostics.FileVersionInfo/4.3.0": {
        "dependencies": {
          "System.Globalization": "4.3.0",
          "System.IO": "4.3.0",
          "System.IO.FileSystem": "4.3.0",
          "System.IO.FileSystem.Primitives": "4.3.0",
          "System.Reflection.Metadata": "1.6.0",
          "System.Runtime": "4.3.0",
          "System.Runtime.Extensions": "4.3.0",
          "System.Runtime.InteropServices": "4.3.0"
        },
        "runtimeTargets": {
          "runtime/unix/lib/_._": {
            "rid": "unix",
            "assetType": "runtime"
          },
          "runtime/win/lib/_._": {
            "rid": "win",
            "assetType": "runtime"
          }
        }
      },
      "System.Diagnostics.Process/4.3.0": {
        "dependencies": {
          "Microsoft.Win32.Primitives": "4.3.0",
          "Microsoft.Win32.Registry": "4.4.0",
          "System.Collections": "4.3.0",
          "System.Diagnostics.Debug": "4.3.0",
          "System.Globalization": "4.3.0",
          "System.IO": "4.3.0",
          "System.IO.FileSystem": "4.3.0",
          "System.IO.FileSystem.Primitives": "4.3.0",
          "System.Resources.ResourceManager": "4.3.0",
          "System.Runtime": "4.3.0",
          "System.Runtime.Extensions": "4.3.0",
          "System.Runtime.Handles": "4.3.0",
          "System.Runtime.InteropServices": "4.3.0",
          "System.Text.Encoding": "4.3.0",
          "System.Text.Encoding.Extensions": "4.3.0",
          "System.Threading": "4.3.0",
          "System.Threading.Tasks": "4.3.0",
          "System.Threading.Thread": "4.3.0",
          "System.Threading.ThreadPool": "4.3.0",
          "runtime.native.System": "4.3.0"
        },
        "runtimeTargets": {
          "runtime/linux/lib/_._": {
            "rid": "linux",
            "assetType": "runtime"
          },
          "runtime/osx/lib/_._": {
            "rid": "osx",
            "assetType": "runtime"
          },
          "runtime/win/lib/_._": {
            "rid": "win",
            "assetType": "runtime"
          }
        }
      },
      "System.Diagnostics.StackTrace/4.3.0": {
        "dependencies": {
          "System.IO.FileSystem": "4.3.0",
          "System.Reflection": "4.3.0",
          "System.Reflection.Metadata": "1.6.0",
          "System.Runtime": "4.3.0"
        }
      },
      "System.Diagnostics.Tools/4.3.0": {
        "dependencies": {
          "System.Runtime": "4.3.0"
        }
      },
      "System.Diagnostics.Tracing/4.3.0": {
        "dependencies": {
          "System.Runtime": "4.3.0"
        }
      },
      "System.Dynamic.Runtime/4.3.0": {
        "dependencies": {
          "System.Collections": "4.3.0",
          "System.Diagnostics.Debug": "4.3.0",
          "System.Linq": "4.3.0",
          "System.Linq.Expressions": "4.3.0",
          "System.ObjectModel": "4.3.0",
          "System.Reflection": "4.3.0",
          "System.Reflection.Emit": "4.3.0",
          "System.Reflection.Emit.ILGeneration": "4.3.0",
          "System.Reflection.Primitives": "4.3.0",
          "System.Reflection.TypeExtensions": "4.3.0",
          "System.Resources.ResourceManager": "4.3.0",
          "System.Runtime": "4.3.0",
          "System.Runtime.Extensions": "4.3.0",
          "System.Threading": "4.3.0"
        }
      },
      "System.Globalization/4.3.0": {
        "dependencies": {
          "System.Runtime": "4.3.0"
        }
      },
      "System.Globalization.Calendars/4.3.0": {
        "dependencies": {
          "System.Globalization": "4.3.0",
          "System.Runtime": "4.3.0"
        }
      },
      "System.IO/4.3.0": {
        "dependencies": {
          "System.Runtime": "4.3.0",
          "System.Text.Encoding": "4.3.0",
          "System.Threading.Tasks": "4.3.0"
        }
      },
      "System.IO.Compression/4.3.0": {
        "dependencies": {
          "System.Buffers": "4.3.0",
          "System.Collections": "4.3.0",
          "System.Diagnostics.Debug": "4.3.0",
          "System.IO": "4.3.0",
          "System.Resources.ResourceManager": "4.3.0",
          "System.Runtime": "4.3.0",
          "System.Runtime.Extensions": "4.3.0",
          "System.Runtime.Handles": "4.3.0",
          "System.Runtime.InteropServices": "4.3.0",
          "System.Text.Encoding": "4.3.0",
          "System.Threading": "4.3.0",
          "System.Threading.Tasks": "4.3.0",
          "runtime.native.System": "4.3.0",
          "runtime.native.System.IO.Compression": "4.3.0"
        },
        "runtimeTargets": {
          "runtime/unix/lib/_._": {
            "rid": "unix",
            "assetType": "runtime"
          },
          "runtime/win/lib/_._": {
            "rid": "win",
            "assetType": "runtime"
          }
        }
      },
      "System.IO.FileSystem/4.3.0": {
        "dependencies": {
          "System.IO": "4.3.0",
          "System.IO.FileSystem.Primitives": "4.3.0",
          "System.Runtime": "4.3.0",
          "System.Runtime.Handles": "4.3.0",
          "System.Text.Encoding": "4.3.0",
          "System.Threading.Tasks": "4.3.0"
        }
      },
      "System.IO.FileSystem.Primitives/4.3.0": {
        "dependencies": {
          "System.Runtime": "4.3.0"
        }
      },
      "System.Linq/4.3.0": {
        "dependencies": {
          "System.Collections": "4.3.0",
          "System.Diagnostics.Debug": "4.3.0",
          "System.Resources.ResourceManager": "4.3.0",
          "System.Runtime": "4.3.0",
          "System.Runtime.Extensions": "4.3.0"
        }
      },
      "System.Linq.Expressions/4.3.0": {
        "dependencies": {
          "System.Collections": "4.3.0",
          "System.Diagnostics.Debug": "4.3.0",
          "System.Globalization": "4.3.0",
          "System.IO": "4.3.0",
          "System.Linq": "4.3.0",
          "System.ObjectModel": "4.3.0",
          "System.Reflection": "4.3.0",
          "System.Reflection.Emit": "4.3.0",
          "System.Reflection.Emit.ILGeneration": "4.3.0",
          "System.Reflection.Emit.Lightweight": "4.3.0",
          "System.Reflection.Extensions": "4.3.0",
          "System.Reflection.Primitives": "4.3.0",
          "System.Reflection.TypeExtensions": "4.3.0",
          "System.Resources.ResourceManager": "4.3.0",
          "System.Runtime": "4.3.0",
          "System.Runtime.Extensions": "4.3.0",
          "System.Threading": "4.3.0"
        }
      },
      "System.ObjectModel/4.3.0": {
        "dependencies": {
          "System.Collections": "4.3.0",
          "System.Diagnostics.Debug": "4.3.0",
          "System.Resources.ResourceManager": "4.3.0",
          "System.Runtime": "4.3.0",
          "System.Threading": "4.3.0"
        }
      },
      "System.Reflection/4.3.0": {
        "dependencies": {
          "System.IO": "4.3.0",
          "System.Reflection.Primitives": "4.3.0",
          "System.Runtime": "4.3.0"
        }
      },
      "System.Reflection.Emit/4.3.0": {
        "dependencies": {
          "System.IO": "4.3.0",
          "System.Reflection": "4.3.0",
          "System.Reflection.Emit.ILGeneration": "4.3.0",
          "System.Reflection.Primitives": "4.3.0",
          "System.Runtime": "4.3.0"
        }
      },
      "System.Reflection.Emit.ILGeneration/4.3.0": {
        "dependencies": {
          "System.Reflection": "4.3.0",
          "System.Reflection.Primitives": "4.3.0",
          "System.Runtime": "4.3.0"
        }
      },
      "System.Reflection.Emit.Lightweight/4.3.0": {
        "dependencies": {
          "System.Reflection": "4.3.0",
          "System.Reflection.Emit.ILGeneration": "4.3.0",
          "System.Reflection.Primitives": "4.3.0",
          "System.Runtime": "4.3.0"
        }
      },
      "System.Reflection.Extensions/4.3.0": {
        "dependencies": {
          "System.Reflection": "4.3.0",
          "System.Runtime": "4.3.0"
        }
      },
      "System.Reflection.Metadata/1.6.0": {},
      "System.Reflection.Primitives/4.3.0": {
        "dependencies": {
          "System.Runtime": "4.3.0"
        }
      },
      "System.Reflection.TypeExtensions/4.3.0": {
        "dependencies": {
          "System.Reflection": "4.3.0",
          "System.Runtime": "4.3.0"
        }
      },
      "System.Resources.ResourceManager/4.3.0": {
        "dependencies": {
          "System.Globalization": "4.3.0",
          "System.Reflection": "4.3.0",
          "System.Runtime": "4.3.0"
        }
      },
      "System.Runtime/4.3.0": {},
      "System.Runtime.Extensions/4.3.0": {
        "dependencies": {
          "System.Runtime": "4.3.0"
        }
      },
      "System.Runtime.Handles/4.3.0": {
        "dependencies": {
          "System.Runtime": "4.3.0"
        }
      },
      "System.Runtime.InteropServices/4.3.0": {
        "dependencies": {
          "System.Reflection": "4.3.0",
          "System.Reflection.Primitives": "4.3.0",
          "System.Runtime": "4.3.0",
          "System.Runtime.Handles": "4.3.0"
        }
      },
      "System.Runtime.InteropServices.RuntimeInformation/4.0.0": {
        "dependencies": {
          "System.Reflection": "4.3.0",
          "System.Resources.ResourceManager": "4.3.0",
          "System.Runtime": "4.3.0",
          "System.Runtime.InteropServices": "4.3.0",
          "System.Threading": "4.3.0",
          "runtime.native.System": "4.3.0"
        },
        "runtimeTargets": {
          "runtime/unix/lib/_._": {
            "rid": "unix",
            "assetType": "runtime"
          },
          "runtime/win/lib/_._": {
            "rid": "win",
            "assetType": "runtime"
          }
        }
      },
      "System.Runtime.Numerics/4.3.0": {
        "dependencies": {
          "System.Globalization": "4.3.0",
          "System.Resources.ResourceManager": "4.3.0",
          "System.Runtime": "4.3.0",
          "System.Runtime.Extensions": "4.3.0"
        }
      },
      "System.Runtime.Serialization.Formatters/4.3.0": {
        "dependencies": {
          "System.Collections": "4.3.0",
          "System.Reflection": "4.3.0",
          "System.Resources.ResourceManager": "4.3.0",
          "System.Runtime": "4.3.0",
          "System.Runtime.Serialization.Primitives": "4.3.0"
        }
      },
      "System.Runtime.Serialization.Primitives/4.3.0": {
        "dependencies": {
          "System.Resources.ResourceManager": "4.3.0",
          "System.Runtime": "4.3.0"
        }
      },
      "System.Security.AccessControl/4.4.0": {
        "dependencies": {
          "System.Security.Principal.Windows": "4.4.0"
        },
        "runtimeTargets": {
          "runtime/unix/lib/_._": {
            "rid": "unix",
            "assetType": "runtime"
          },
          "runtime/win/lib/_._": {
            "rid": "win",
            "assetType": "runtime"
          }
        }
      },
      "System.Security.Cryptography.Algorithms/4.3.0": {
        "dependencies": {
          "System.Collections": "4.3.0",
          "System.IO": "4.3.0",
          "System.Resources.ResourceManager": "4.3.0",
          "System.Runtime": "4.3.0",
          "System.Runtime.Extensions": "4.3.0",
          "System.Runtime.Handles": "4.3.0",
          "System.Runtime.InteropServices": "4.3.0",
          "System.Runtime.Numerics": "4.3.0",
          "System.Security.Cryptography.Encoding": "4.3.0",
          "System.Security.Cryptography.Primitives": "4.3.0",
          "System.Text.Encoding": "4.3.0",
          "runtime.native.System.Security.Cryptography.Apple": "4.3.0",
          "runtime.native.System.Security.Cryptography.OpenSsl": "4.3.0"
        },
        "runtimeTargets": {
          "runtime/osx/lib/_._": {
            "rid": "osx",
            "assetType": "runtime"
          },
          "runtime/unix/lib/_._": {
            "rid": "unix",
            "assetType": "runtime"
          },
          "runtime/win/lib/_._": {
            "rid": "win",
            "assetType": "runtime"
          }
        }
      },
      "System.Security.Cryptography.Cng/4.3.0": {
        "dependencies": {
          "System.IO": "4.3.0",
          "System.Resources.ResourceManager": "4.3.0",
          "System.Runtime": "4.3.0",
          "System.Runtime.Extensions": "4.3.0",
          "System.Runtime.Handles": "4.3.0",
          "System.Runtime.InteropServices": "4.3.0",
          "System.Security.Cryptography.Algorithms": "4.3.0",
          "System.Security.Cryptography.Encoding": "4.3.0",
          "System.Security.Cryptography.Primitives": "4.3.0",
          "System.Text.Encoding": "4.3.0"
        },
        "runtimeTargets": {
          "runtime/unix/lib/_._": {
            "rid": "unix",
            "assetType": "runtime"
          },
          "runtime/win/lib/_._": {
            "rid": "win",
            "assetType": "runtime"
          }
        }
      },
      "System.Security.Cryptography.Csp/4.3.0": {
        "dependencies": {
          "System.IO": "4.3.0",
          "System.Reflection": "4.3.0",
          "System.Resources.ResourceManager": "4.3.0",
          "System.Runtime": "4.3.0",
          "System.Runtime.Extensions": "4.3.0",
          "System.Runtime.Handles": "4.3.0",
          "System.Runtime.InteropServices": "4.3.0",
          "System.Security.Cryptography.Algorithms": "4.3.0",
          "System.Security.Cryptography.Encoding": "4.3.0",
          "System.Security.Cryptography.Primitives": "4.3.0",
          "System.Text.Encoding": "4.3.0",
          "System.Threading": "4.3.0"
        },
        "runtimeTargets": {
          "runtime/unix/lib/_._": {
            "rid": "unix",
            "assetType": "runtime"
          },
          "runtime/win/lib/_._": {
            "rid": "win",
            "assetType": "runtime"
          }
        }
      },
      "System.Security.Cryptography.Encoding/4.3.0": {
        "dependencies": {
          "System.Collections": "4.3.0",
          "System.Collections.Concurrent": "4.3.0",
          "System.Linq": "4.3.0",
          "System.Resources.ResourceManager": "4.3.0",
          "System.Runtime": "4.3.0",
          "System.Runtime.Extensions": "4.3.0",
          "System.Runtime.Handles": "4.3.0",
          "System.Runtime.InteropServices": "4.3.0",
          "System.Security.Cryptography.Primitives": "4.3.0",
          "System.Text.Encoding": "4.3.0",
          "runtime.native.System.Security.Cryptography.OpenSsl": "4.3.0"
        },
        "runtimeTargets": {
          "runtime/unix/lib/_._": {
            "rid": "unix",
            "assetType": "runtime"
          },
          "runtime/win/lib/_._": {
            "rid": "win",
            "assetType": "runtime"
          }
        }
      },
      "System.Security.Cryptography.OpenSsl/4.3.0": {
        "dependencies": {
          "System.Collections": "4.3.0",
          "System.IO": "4.3.0",
          "System.Resources.ResourceManager": "4.3.0",
          "System.Runtime": "4.3.0",
          "System.Runtime.Extensions": "4.3.0",
          "System.Runtime.Handles": "4.3.0",
          "System.Runtime.InteropServices": "4.3.0",
          "System.Runtime.Numerics": "4.3.0",
          "System.Security.Cryptography.Algorithms": "4.3.0",
          "System.Security.Cryptography.Encoding": "4.3.0",
          "System.Security.Cryptography.Primitives": "4.3.0",
          "System.Text.Encoding": "4.3.0",
          "runtime.native.System.Security.Cryptography.OpenSsl": "4.3.0"
        },
        "runtimeTargets": {
          "runtime/unix/lib/_._": {
            "rid": "unix",
            "assetType": "runtime"
          }
        }
      },
      "System.Security.Cryptography.Primitives/4.3.0": {
        "dependencies": {
          "System.Diagnostics.Debug": "4.3.0",
          "System.Globalization": "4.3.0",
          "System.IO": "4.3.0",
          "System.Resources.ResourceManager": "4.3.0",
          "System.Runtime": "4.3.0",
          "System.Threading": "4.3.0",
          "System.Threading.Tasks": "4.3.0"
        }
      },
      "System.Security.Cryptography.ProtectedData/4.3.0": {
        "dependencies": {
          "System.Resources.ResourceManager": "4.3.0",
          "System.Runtime": "4.3.0",
          "System.Runtime.InteropServices": "4.3.0",
          "System.Security.Cryptography.Primitives": "4.3.0"
        },
        "runtimeTargets": {
          "runtimes/unix/lib/netstandard1.3/System.Security.Cryptography.ProtectedData.dll": {
            "rid": "unix",
            "assetType": "runtime",
            "assemblyVersion": "4.0.1.0",
            "fileVersion": "4.6.24705.1"
          },
          "runtimes/win/lib/netstandard1.3/System.Security.Cryptography.ProtectedData.dll": {
            "rid": "win",
            "assetType": "runtime",
            "assemblyVersion": "4.0.1.0",
            "fileVersion": "4.6.24705.1"
          }
        }
      },
      "System.Security.Cryptography.X509Certificates/4.3.0": {
        "dependencies": {
          "System.Collections": "4.3.0",
          "System.Diagnostics.Debug": "4.3.0",
          "System.Globalization": "4.3.0",
          "System.Globalization.Calendars": "4.3.0",
          "System.IO": "4.3.0",
          "System.IO.FileSystem": "4.3.0",
          "System.IO.FileSystem.Primitives": "4.3.0",
          "System.Resources.ResourceManager": "4.3.0",
          "System.Runtime": "4.3.0",
          "System.Runtime.Extensions": "4.3.0",
          "System.Runtime.Handles": "4.3.0",
          "System.Runtime.InteropServices": "4.3.0",
          "System.Runtime.Numerics": "4.3.0",
          "System.Security.Cryptography.Algorithms": "4.3.0",
          "System.Security.Cryptography.Cng": "4.3.0",
          "System.Security.Cryptography.Csp": "4.3.0",
          "System.Security.Cryptography.Encoding": "4.3.0",
          "System.Security.Cryptography.OpenSsl": "4.3.0",
          "System.Security.Cryptography.Primitives": "4.3.0",
          "System.Text.Encoding": "4.3.0",
          "System.Threading": "4.3.0",
          "runtime.native.System": "4.3.0",
          "runtime.native.System.Net.Http": "4.3.0",
          "runtime.native.System.Security.Cryptography.OpenSsl": "4.3.0"
        },
        "runtimeTargets": {
          "runtime/unix/lib/_._": {
            "rid": "unix",
            "assetType": "runtime"
          },
          "runtime/win/lib/_._": {
            "rid": "win",
            "assetType": "runtime"
          }
        }
      },
      "System.Security.Principal.Windows/4.4.0": {
        "runtimeTargets": {
          "runtime/unix/lib/_._": {
            "rid": "unix",
            "assetType": "runtime"
          },
          "runtime/win/lib/_._": {
            "rid": "win",
            "assetType": "runtime"
          }
        }
      },
      "System.Text.Encoding/4.3.0": {
        "dependencies": {
          "System.Runtime": "4.3.0"
        }
      },
      "System.Text.Encoding.CodePages/4.3.0": {
        "dependencies": {
          "System.Collections": "4.3.0",
          "System.Globalization": "4.3.0",
          "System.IO": "4.3.0",
          "System.Reflection": "4.3.0",
          "System.Resources.ResourceManager": "4.3.0",
          "System.Runtime": "4.3.0",
          "System.Runtime.Extensions": "4.3.0",
          "System.Runtime.Handles": "4.3.0",
          "System.Runtime.InteropServices": "4.3.0",
          "System.Text.Encoding": "4.3.0",
          "System.Threading": "4.3.0"
        },
        "runtimeTargets": {
          "runtimes/unix/lib/netstandard1.3/System.Text.Encoding.CodePages.dll": {
            "rid": "unix",
            "assetType": "runtime",
            "assemblyVersion": "4.0.2.0",
            "fileVersion": "4.6.24705.1"
          },
          "runtimes/win/lib/netstandard1.3/System.Text.Encoding.CodePages.dll": {
            "rid": "win",
            "assetType": "runtime",
            "assemblyVersion": "4.0.2.0",
            "fileVersion": "4.6.24705.1"
          }
        }
      },
      "System.Text.Encoding.Extensions/4.3.0": {
        "dependencies": {
          "System.Runtime": "4.3.0",
          "System.Text.Encoding": "4.3.0"
        }
      },
      "System.Text.RegularExpressions/4.3.0": {
        "dependencies": {
          "System.Runtime": "4.3.0"
        }
      },
      "System.Threading/4.3.0": {
        "dependencies": {
          "System.Runtime": "4.3.0",
          "System.Threading.Tasks": "4.3.0"
        }
      },
      "System.Threading.Tasks/4.3.0": {
        "dependencies": {
          "System.Runtime": "4.3.0"
        }
      },
      "System.Threading.Tasks.Extensions/4.3.0": {
        "dependencies": {
          "System.Collections": "4.3.0",
          "System.Runtime": "4.3.0",
          "System.Threading.Tasks": "4.3.0"
        }
      },
      "System.Threading.Tasks.Parallel/4.3.0": {
        "dependencies": {
          "System.Collections.Concurrent": "4.3.0",
          "System.Diagnostics.Debug": "4.3.0",
          "System.Diagnostics.Tracing": "4.3.0",
          "System.Resources.ResourceManager": "4.3.0",
          "System.Runtime": "4.3.0",
          "System.Runtime.Extensions": "4.3.0",
          "System.Threading": "4.3.0",
          "System.Threading.Tasks": "4.3.0"
        }
      },
      "System.Threading.Thread/4.3.0": {
        "dependencies": {
          "System.Runtime": "4.3.0"
        }
      },
      "System.Threading.ThreadPool/4.3.0": {
        "dependencies": {
          "System.Runtime": "4.3.0",
          "System.Runtime.Handles": "4.3.0"
        }
      },
      "System.ValueTuple/4.3.0": {
        "dependencies": {
          "System.Collections": "4.3.0",
          "System.Resources.ResourceManager": "4.3.0",
          "System.Runtime": "4.3.0"
        }
      },
      "System.Xml.ReaderWriter/4.3.0": {
        "dependencies": {
          "System.Collections": "4.3.0",
          "System.Diagnostics.Debug": "4.3.0",
          "System.Globalization": "4.3.0",
          "System.IO": "4.3.0",
          "System.IO.FileSystem": "4.3.0",
          "System.IO.FileSystem.Primitives": "4.3.0",
          "System.Resources.ResourceManager": "4.3.0",
          "System.Runtime": "4.3.0",
          "System.Runtime.Extensions": "4.3.0",
          "System.Runtime.InteropServices": "4.3.0",
          "System.Text.Encoding": "4.3.0",
          "System.Text.Encoding.Extensions": "4.3.0",
          "System.Text.RegularExpressions": "4.3.0",
          "System.Threading.Tasks": "4.3.0",
          "System.Threading.Tasks.Extensions": "4.3.0"
        }
      },
      "System.Xml.XDocument/4.3.0": {
        "dependencies": {
          "System.Collections": "4.3.0",
          "System.Diagnostics.Debug": "4.3.0",
          "System.Diagnostics.Tools": "4.3.0",
          "System.Globalization": "4.3.0",
          "System.IO": "4.3.0",
          "System.Reflection": "4.3.0",
          "System.Resources.ResourceManager": "4.3.0",
          "System.Runtime": "4.3.0",
          "System.Runtime.Extensions": "4.3.0",
          "System.Text.Encoding": "4.3.0",
          "System.Threading": "4.3.0",
          "System.Xml.ReaderWriter": "4.3.0"
        }
      },
      "System.Xml.XmlDocument/4.3.0": {
        "dependencies": {
          "System.Collections": "4.3.0",
          "System.Diagnostics.Debug": "4.3.0",
          "System.Globalization": "4.3.0",
          "System.IO": "4.3.0",
          "System.Resources.ResourceManager": "4.3.0",
          "System.Runtime": "4.3.0",
          "System.Runtime.Extensions": "4.3.0",
          "System.Text.Encoding": "4.3.0",
          "System.Threading": "4.3.0",
          "System.Xml.ReaderWriter": "4.3.0"
        }
      },
      "System.Xml.XPath/4.3.0": {
        "dependencies": {
          "System.Collections": "4.3.0",
          "System.Diagnostics.Debug": "4.3.0",
          "System.Globalization": "4.3.0",
          "System.IO": "4.3.0",
          "System.Resources.ResourceManager": "4.3.0",
          "System.Runtime": "4.3.0",
          "System.Runtime.Extensions": "4.3.0",
          "System.Threading": "4.3.0",
          "System.Xml.ReaderWriter": "4.3.0"
        }
      },
      "System.Xml.XPath.XDocument/4.3.0": {
        "dependencies": {
          "System.Diagnostics.Debug": "4.3.0",
          "System.Linq": "4.3.0",
          "System.Resources.ResourceManager": "4.3.0",
          "System.Runtime": "4.3.0",
          "System.Runtime.Extensions": "4.3.0",
          "System.Threading": "4.3.0",
          "System.Xml.ReaderWriter": "4.3.0",
          "System.Xml.XDocument": "4.3.0",
          "System.Xml.XPath": "4.3.0"
        }
      },
      "Cake.Common/0.33.0": {
        "dependencies": {
          "Cake.Core": "0.33.0"
        },
        "runtime": {
          "Cake.Common.dll": {}
        }
      },
      "Cake.Core/0.33.0": {
        "dependencies": {
          "Microsoft.Extensions.DependencyModel": "2.0.4",
          "Microsoft.Win32.Registry": "4.4.0",
          "Newtonsoft.Json": "11.0.2"
        },
        "runtime": {
          "Cake.Core.dll": {}
        }
      },
      "Cake.NuGet/0.33.0": {
        "dependencies": {
          "Cake.Core": "0.33.0",
          "Newtonsoft.Json": "11.0.2",
          "NuGet.Frameworks": "4.9.2",
          "NuGet.PackageManagement.NetStandard": "4.9.2",
          "NuGet.ProjectModel": "4.9.2",
          "NuGet.Versioning": "4.9.2"
        },
        "runtime": {
          "Cake.NuGet.dll": {}
        }
      }
    }
  },
  "libraries": {
    "Cake/0.33.0": {
      "type": "project",
      "serviceable": false,
      "sha512": ""
    },
    "Autofac/4.6.2": {
      "type": "package",
      "serviceable": true,
      "sha512": "sha512-wKI7F6+n45gqfq0T8FuB3hFzaCkuegiFo5in6uB1y2Ai9ZYcjue8yqk3yzyNEwBDS7AyvlTUGSoNovwpUuKqTw==",
      "path": "autofac/4.6.2",
      "hashPath": "autofac.4.6.2.nupkg.sha512"
    },
    "Microsoft.CodeAnalysis.Analyzers/2.6.1": {
      "type": "package",
      "serviceable": true,
      "sha512": "sha512-VsT6gg2SPeToP8SK7PEcsH6Ftryb7aOqnXh9xg11zBeov05+63gP3k/TvrR+v85XIa8Nn0y3+qNl4M+qzNLBfw==",
      "path": "microsoft.codeanalysis.analyzers/2.6.1",
      "hashPath": "microsoft.codeanalysis.analyzers.2.6.1.nupkg.sha512"
    },
    "Microsoft.CodeAnalysis.Common/2.10.0": {
      "type": "package",
      "serviceable": true,
      "sha512": "sha512-w57ebW3QIRFPoFFX6GCa6eF2FmuHYaWEJ/sMMHq+PBnHB51dEzLIoAQft1Byqe5nrSo4UUV6v4tad8fkTrKl8w==",
      "path": "microsoft.codeanalysis.common/2.10.0",
      "hashPath": "microsoft.codeanalysis.common.2.10.0.nupkg.sha512"
    },
    "Microsoft.CodeAnalysis.CSharp/2.10.0": {
      "type": "package",
      "serviceable": true,
      "sha512": "sha512-bTr6j4V7G4ZPhRDUdowdtbEvXsQA4w1TYfOtXiYdv8TF7STl9ShOKtlSVzAusmeEWsZksJm9D1VSxt6XIyNB0w==",
      "path": "microsoft.codeanalysis.csharp/2.10.0",
      "hashPath": "microsoft.codeanalysis.csharp.2.10.0.nupkg.sha512"
    },
    "Microsoft.CodeAnalysis.CSharp.Scripting/2.10.0": {
      "type": "package",
      "serviceable": true,
      "sha512": "sha512-0tP5N24aD4k28zucXXExX9ePRMuzIBHwhbrIRUKJW/znI5Fv0rN2h4RLOmQbKDjPqPy215mSdu0/FsX8z4fyXQ==",
      "path": "microsoft.codeanalysis.csharp.scripting/2.10.0",
      "hashPath": "microsoft.codeanalysis.csharp.scripting.2.10.0.nupkg.sha512"
    },
    "Microsoft.CodeAnalysis.Scripting.Common/2.10.0": {
      "type": "package",
      "serviceable": true,
      "sha512": "sha512-yHP5jCHwdOl7Is83RSbIwp3PzgbtQMQ6+Nsn8pTre42c5SNJVY8bj0+z5tHCD/9FGL8Mwuzp/+Rw8XSVU7WAjg==",
      "path": "microsoft.codeanalysis.scripting.common/2.10.0",
      "hashPath": "microsoft.codeanalysis.scripting.common.2.10.0.nupkg.sha512"
    },
    "Microsoft.DotNet.PlatformAbstractions/2.0.4": {
      "type": "package",
      "serviceable": true,
      "sha512": "sha512-2HjSGp63VCLQaeGadrLYR868g25mJHr+TFF81yWCaClzjUbU2vNDx6km7SUgPnoLVksE/1e7in88eh+oPtc4aQ==",
      "path": "microsoft.dotnet.platformabstractions/2.0.4",
      "hashPath": "microsoft.dotnet.platformabstractions.2.0.4.nupkg.sha512"
    },
    "Microsoft.Extensions.DependencyModel/2.0.4": {
      "type": "package",
      "serviceable": true,
      "sha512": "sha512-jnHAeijsfJFQXdXmnYK/NhQIkgBUeth//RZZkf0ldIKC+jARbf7YxbA9uTrs/EPhuQxHXaDxVuMyscgmL+UqfA==",
      "path": "microsoft.extensions.dependencymodel/2.0.4",
      "hashPath": "microsoft.extensions.dependencymodel.2.0.4.nupkg.sha512"
    },
    "Microsoft.Win32.Primitives/4.3.0": {
      "type": "package",
      "serviceable": true,
      "sha512": "sha512-9ZQKCWxH7Ijp9BfahvL2Zyf1cJIk8XYLF6Yjzr2yi0b2cOut/HQ31qf1ThHAgCc3WiZMdnWcfJCgN82/0UunxA==",
      "path": "microsoft.win32.primitives/4.3.0",
      "hashPath": "microsoft.win32.primitives.4.3.0.nupkg.sha512"
    },
    "Microsoft.Win32.Registry/4.4.0": {
      "type": "package",
      "serviceable": true,
      "sha512": "sha512-dA36TlNVn/XfrZtmf0fiI/z1nd3Wfp2QVzTdj26pqgP9LFWq0i1hYEUAW50xUjGFYn1+/cP3KGuxT2Yn1OUNBQ==",
      "path": "microsoft.win32.registry/4.4.0",
      "hashPath": "microsoft.win32.registry.4.4.0.nupkg.sha512"
    },
    "Newtonsoft.Json/11.0.2": {
      "type": "package",
      "serviceable": true,
      "sha512": "sha512-IvJe1pj7JHEsP8B8J8DwlMEx8UInrs/x+9oVY+oCD13jpLu4JbJU2WCIsMRn5C4yW9+DgkaO8uiVE5VHKjpmdQ==",
      "path": "newtonsoft.json/11.0.2",
      "hashPath": "newtonsoft.json.11.0.2.nupkg.sha512"
    },
    "NuGet.Commands/4.9.2": {
      "type": "package",
      "serviceable": true,
      "sha512": "sha512-xR2hTiKgIF/8xqFprfezAntSM2y0fTaKON2QMVwUxOLsWFOE3E2QtLFgrOYpPJ7LXSpTMU5IKuHbEh1yfynRuQ==",
      "path": "nuget.commands/4.9.2",
      "hashPath": "nuget.commands.4.9.2.nupkg.sha512"
    },
    "NuGet.Common/4.9.2": {
      "type": "package",
      "serviceable": true,
      "sha512": "sha512-gVWkT4cizHdIbPUjW7X+rs6PP2heXkqV+r15CrcPX7jcRXCZ+0r350qU0uRVkyxPHiKgRHODsEyd3tgjARC+0A==",
      "path": "nuget.common/4.9.2",
      "hashPath": "nuget.common.4.9.2.nupkg.sha512"
    },
    "NuGet.Configuration/4.9.2": {
      "type": "package",
      "serviceable": true,
      "sha512": "sha512-WRPFvvH0sAtD+QftIf53wXGx0UuCCd1g5yd/UQiZeapaQmBzJvBiE6JMjHwvsDX29IRScuGZVO/mtsAE59VNPQ==",
      "path": "nuget.configuration/4.9.2",
      "hashPath": "nuget.configuration.4.9.2.nupkg.sha512"
    },
    "NuGet.Credentials/4.9.2": {
      "type": "package",
      "serviceable": true,
      "sha512": "sha512-qhNoJHZQHZRKTkIMRY6H0XeN+Hvlg6X1yd/4CF4WfLnWEAW2wv2BaNnfPujkrwsIRNfjZkGXy+7HLHtMJNkfeg==",
      "path": "nuget.credentials/4.9.2",
      "hashPath": "nuget.credentials.4.9.2.nupkg.sha512"
    },
    "NuGet.DependencyResolver.Core/4.9.2": {
      "type": "package",
      "serviceable": true,
      "sha512": "sha512-QQ8Ugq869uo2kQJ6UGyBuFgeXp8B3H+5LTP+CIz4xfrL/L4kvlterfG63Qfy5qJxDOkFvzn19LI4dA8mH7FKrQ==",
      "path": "nuget.dependencyresolver.core/4.9.2",
      "hashPath": "nuget.dependencyresolver.core.4.9.2.nupkg.sha512"
    },
    "NuGet.Frameworks/4.9.2": {
      "type": "package",
      "serviceable": true,
      "sha512": "sha512-8+UTpOGNuUJYZaoF64irgwr7Z9EwPaAKN71biOe/032f9+P5ub7eNgEgKjvP9p1zOtoCxSWg9tWpUMGfoWw+QA==",
      "path": "nuget.frameworks/4.9.2",
      "hashPath": "nuget.frameworks.4.9.2.nupkg.sha512"
    },
    "NuGet.LibraryModel/4.9.2": {
      "type": "package",
      "serviceable": true,
      "sha512": "sha512-7/ycdUYMvOLnB3Qy8hLT3pgrBpClm9w6246Sw9YdVc8SA6zrAEiHViWD4EROtC/tsmAau412PtrzYz+TWL49PQ==",
      "path": "nuget.librarymodel/4.9.2",
      "hashPath": "nuget.librarymodel.4.9.2.nupkg.sha512"
    },
    "NuGet.PackageManagement.NetStandard/4.9.2": {
      "type": "package",
      "serviceable": true,
      "sha512": "sha512-82MsB0yqsHfzBR1qLfSNG5/jZy/ZWPtMmBXpTXYI1HU1/OG6VVvdPXX3jhXy+eTp19dCXG/ugZ8boAcwdV5ZWA==",
      "path": "nuget.packagemanagement.netstandard/4.9.2",
      "hashPath": "nuget.packagemanagement.netstandard.4.9.2.nupkg.sha512"
    },
    "NuGet.Packaging/4.9.2": {
      "type": "package",
      "serviceable": true,
      "sha512": "sha512-pMe8UVgH97VT4i6wLx27qZsgiV1CzM0cyAobGQbQIuwfAYFFsWcG1xCHVnGdVbsXeO8PTvwaaZJYNnOTjXo5dA==",
      "path": "nuget.packaging/4.9.2",
      "hashPath": "nuget.packaging.4.9.2.nupkg.sha512"
    },
    "NuGet.Packaging.Core/4.9.2": {
      "type": "package",
      "serviceable": true,
      "sha512": "sha512-+48neQGaoXNXj6mnBKQlYRlLBQkMXipx0YZzXYrk9KJTknFub34An4VfvgS4OC+FQeaUWrxdyuu4P3WvK6iNpg==",
      "path": "nuget.packaging.core/4.9.2",
      "hashPath": "nuget.packaging.core.4.9.2.nupkg.sha512"
    },
    "NuGet.ProjectModel/4.9.2": {
      "type": "package",
      "serviceable": true,
      "sha512": "sha512-gjkikFwUu9CJB+AshD+ihD/+KCaLmAdUFxGANSi505ejZ8BXT1B5cswQXdV6WSUz5qS2usDUpzV7U6Bl9uEHMQ==",
      "path": "nuget.projectmodel/4.9.2",
      "hashPath": "nuget.projectmodel.4.9.2.nupkg.sha512"
    },
    "NuGet.Protocol/4.9.2": {
      "type": "package",
      "serviceable": true,
      "sha512": "sha512-63hU2/NJ0J+GXQIlV6fYsdPtINvWyv24iTjT7ohvN0H6xj4gqmKL4kz9qJopnDAnBKOnSQpPPNhkD5AimgaW1A==",
      "path": "nuget.protocol/4.9.2",
      "hashPath": "nuget.protocol.4.9.2.nupkg.sha512"
    },
    "NuGet.Resolver/4.9.2": {
      "type": "package",
      "serviceable": true,
      "sha512": "sha512-Jz4yjQIHvFc73gQUMLVTz1ehaglT6DpRxML1mecK3TbqlkG+9bFonQkcpqBezjAf3fi1orS89dXWC8osWhdksA==",
      "path": "nuget.resolver/4.9.2",
      "hashPath": "nuget.resolver.4.9.2.nupkg.sha512"
    },
    "NuGet.Versioning/4.9.2": {
      "type": "package",
      "serviceable": true,
      "sha512": "sha512-PRBC8F6sGqQkVrKpflc24tfudwuAuRksXafmJ33VPOa583B9DvHvk27JB0q1OIWhO6sBdco71caVXQvwx7u29w==",
      "path": "nuget.versioning/4.9.2",
      "hashPath": "nuget.versioning.4.9.2.nupkg.sha512"
    },
    "runtime.debian.8-x64.runtime.native.System.Security.Cryptography.OpenSsl/4.3.0": {
      "type": "package",
      "serviceable": true,
      "sha512": "sha512-HdSSp5MnJSsg08KMfZThpuLPJpPwE5hBXvHwoKWosyHHfe8Mh5WKT0ylEOf6yNzX6Ngjxe4Whkafh5q7Ymac4Q==",
      "path": "runtime.debian.8-x64.runtime.native.system.security.cryptography.openssl/4.3.0",
      "hashPath": "runtime.debian.8-x64.runtime.native.system.security.cryptography.openssl.4.3.0.nupkg.sha512"
    },
    "runtime.fedora.23-x64.runtime.native.System.Security.Cryptography.OpenSsl/4.3.0": {
      "type": "package",
      "serviceable": true,
      "sha512": "sha512-+yH1a49wJMy8Zt4yx5RhJrxO/DBDByAiCzNwiETI+1S4mPdCu0OY4djdciC7Vssk0l22wQaDLrXxXkp+3+7bVA==",
      "path": "runtime.fedora.23-x64.runtime.native.system.security.cryptography.openssl/4.3.0",
      "hashPath": "runtime.fedora.23-x64.runtime.native.system.security.cryptography.openssl.4.3.0.nupkg.sha512"
    },
    "runtime.fedora.24-x64.runtime.native.System.Security.Cryptography.OpenSsl/4.3.0": {
      "type": "package",
      "serviceable": true,
      "sha512": "sha512-c3YNH1GQJbfIPJeCnr4avseugSqPrxwIqzthYyZDN6EuOyNOzq+y2KSUfRcXauya1sF4foESTgwM5e1A8arAKw==",
      "path": "runtime.fedora.24-x64.runtime.native.system.security.cryptography.openssl/4.3.0",
      "hashPath": "runtime.fedora.24-x64.runtime.native.system.security.cryptography.openssl.4.3.0.nupkg.sha512"
    },
    "runtime.native.System/4.3.0": {
      "type": "package",
      "serviceable": true,
      "sha512": "sha512-c/qWt2LieNZIj1jGnVNsE2Kl23Ya2aSTBuXMD6V7k9KWr6l16Tqdwq+hJScEpWER9753NWC8h96PaVNY5Ld7Jw==",
      "path": "runtime.native.system/4.3.0",
      "hashPath": "runtime.native.system.4.3.0.nupkg.sha512"
    },
    "runtime.native.System.IO.Compression/4.3.0": {
      "type": "package",
      "serviceable": true,
      "sha512": "sha512-INBPonS5QPEgn7naufQFXJEp3zX6L4bwHgJ/ZH78aBTpeNfQMtf7C6VrAFhlq2xxWBveIOWyFzQjJ8XzHMhdOQ==",
      "path": "runtime.native.system.io.compression/4.3.0",
      "hashPath": "runtime.native.system.io.compression.4.3.0.nupkg.sha512"
    },
    "runtime.native.System.Net.Http/4.3.0": {
      "type": "package",
      "serviceable": true,
      "sha512": "sha512-ZVuZJqnnegJhd2k/PtAbbIcZ3aZeITq3sj06oKfMBSfphW3HDmk/t4ObvbOk/JA/swGR0LNqMksAh/f7gpTROg==",
      "path": "runtime.native.system.net.http/4.3.0",
      "hashPath": "runtime.native.system.net.http.4.3.0.nupkg.sha512"
    },
    "runtime.native.System.Security.Cryptography.Apple/4.3.0": {
      "type": "package",
      "serviceable": true,
      "sha512": "sha512-DloMk88juo0OuOWr56QG7MNchmafTLYWvABy36izkrLI5VledI0rq28KGs1i9wbpeT9NPQrx/wTf8U2vazqQ3Q==",
      "path": "runtime.native.system.security.cryptography.apple/4.3.0",
      "hashPath": "runtime.native.system.security.cryptography.apple.4.3.0.nupkg.sha512"
    },
    "runtime.native.System.Security.Cryptography.OpenSsl/4.3.0": {
      "type": "package",
      "serviceable": true,
      "sha512": "sha512-NS1U+700m4KFRHR5o4vo9DSlTmlCKu/u7dtE5sUHVIPB+xpXxYQvgBgA6wEIeCz6Yfn0Z52/72WYsToCEPJnrw==",
      "path": "runtime.native.system.security.cryptography.openssl/4.3.0",
      "hashPath": "runtime.native.system.security.cryptography.openssl.4.3.0.nupkg.sha512"
    },
    "runtime.opensuse.13.2-x64.runtime.native.System.Security.Cryptography.OpenSsl/4.3.0": {
      "type": "package",
      "serviceable": true,
      "sha512": "sha512-b3pthNgxxFcD+Pc0WSEoC0+md3MyhRS6aCEeenvNE3Fdw1HyJ18ZhRFVJJzIeR/O/jpxPboB805Ho0T3Ul7w8A==",
      "path": "runtime.opensuse.13.2-x64.runtime.native.system.security.cryptography.openssl/4.3.0",
      "hashPath": "runtime.opensuse.13.2-x64.runtime.native.system.security.cryptography.openssl.4.3.0.nupkg.sha512"
    },
    "runtime.opensuse.42.1-x64.runtime.native.System.Security.Cryptography.OpenSsl/4.3.0": {
      "type": "package",
      "serviceable": true,
      "sha512": "sha512-KeLz4HClKf+nFS7p/6Fi/CqyLXh81FpiGzcmuS8DGi9lUqSnZ6Es23/gv2O+1XVGfrbNmviF7CckBpavkBoIFQ==",
      "path": "runtime.opensuse.42.1-x64.runtime.native.system.security.cryptography.openssl/4.3.0",
      "hashPath": "runtime.opensuse.42.1-x64.runtime.native.system.security.cryptography.openssl.4.3.0.nupkg.sha512"
    },
    "runtime.osx.10.10-x64.runtime.native.System.Security.Cryptography.Apple/4.3.0": {
      "type": "package",
      "serviceable": true,
      "sha512": "sha512-kVXCuMTrTlxq4XOOMAysuNwsXWpYeboGddNGpIgNSZmv1b6r/s/DPk0fYMB7Q5Qo4bY68o48jt4T4y5BVecbCQ==",
      "path": "runtime.osx.10.10-x64.runtime.native.system.security.cryptography.apple/4.3.0",
      "hashPath": "runtime.osx.10.10-x64.runtime.native.system.security.cryptography.apple.4.3.0.nupkg.sha512"
    },
    "runtime.osx.10.10-x64.runtime.native.System.Security.Cryptography.OpenSsl/4.3.0": {
      "type": "package",
      "serviceable": true,
      "sha512": "sha512-X7IdhILzr4ROXd8mI1BUCQMSHSQwelUlBjF1JyTKCjXaOGn2fB4EKBxQbCK2VjO3WaWIdlXZL3W6TiIVnrhX4g==",
      "path": "runtime.osx.10.10-x64.runtime.native.system.security.cryptography.openssl/4.3.0",
      "hashPath": "runtime.osx.10.10-x64.runtime.native.system.security.cryptography.openssl.4.3.0.nupkg.sha512"
    },
    "runtime.rhel.7-x64.runtime.native.System.Security.Cryptography.OpenSsl/4.3.0": {
      "type": "package",
      "serviceable": true,
      "sha512": "sha512-nyFNiCk/r+VOiIqreLix8yN+q3Wga9+SE8BCgkf+2BwEKiNx6DyvFjCgkfV743/grxv8jHJ8gUK4XEQw7yzRYg==",
      "path": "runtime.rhel.7-x64.runtime.native.system.security.cryptography.openssl/4.3.0",
      "hashPath": "runtime.rhel.7-x64.runtime.native.system.security.cryptography.openssl.4.3.0.nupkg.sha512"
    },
    "runtime.ubuntu.14.04-x64.runtime.native.System.Security.Cryptography.OpenSsl/4.3.0": {
      "type": "package",
      "serviceable": true,
      "sha512": "sha512-ytoewC6wGorL7KoCAvRfsgoJPJbNq+64k2SqW6JcOAebWsFUvCCYgfzQMrnpvPiEl4OrblUlhF2ji+Q1+SVLrQ==",
      "path": "runtime.ubuntu.14.04-x64.runtime.native.system.security.cryptography.openssl/4.3.0",
      "hashPath": "runtime.ubuntu.14.04-x64.runtime.native.system.security.cryptography.openssl.4.3.0.nupkg.sha512"
    },
    "runtime.ubuntu.16.04-x64.runtime.native.System.Security.Cryptography.OpenSsl/4.3.0": {
      "type": "package",
      "serviceable": true,
      "sha512": "sha512-I8bKw2I8k58Wx7fMKQJn2R8lamboCAiHfHeV/pS65ScKWMMI0+wJkLYlEKvgW1D/XvSl/221clBoR2q9QNNM7A==",
      "path": "runtime.ubuntu.16.04-x64.runtime.native.system.security.cryptography.openssl/4.3.0",
      "hashPath": "runtime.ubuntu.16.04-x64.runtime.native.system.security.cryptography.openssl.4.3.0.nupkg.sha512"
    },
    "runtime.ubuntu.16.10-x64.runtime.native.System.Security.Cryptography.OpenSsl/4.3.0": {
      "type": "package",
      "serviceable": true,
      "sha512": "sha512-VB5cn/7OzUfzdnC8tqAIMQciVLiq2epm2NrAm1E9OjNRyG4lVhfR61SMcLizejzQP8R8Uf/0l5qOIbUEi+RdEg==",
      "path": "runtime.ubuntu.16.10-x64.runtime.native.system.security.cryptography.openssl/4.3.0",
      "hashPath": "runtime.ubuntu.16.10-x64.runtime.native.system.security.cryptography.openssl.4.3.0.nupkg.sha512"
    },
    "System.AppContext/4.3.0": {
      "type": "package",
      "serviceable": true,
      "sha512": "sha512-fKC+rmaLfeIzUhagxY17Q9siv/sPrjjKcfNg1Ic8IlQkZLipo8ljcaZQu4VtI4Jqbzjc2VTjzGLF6WmsRXAEgA==",
      "path": "system.appcontext/4.3.0",
      "hashPath": "system.appcontext.4.3.0.nupkg.sha512"
    },
    "System.Buffers/4.3.0": {
      "type": "package",
      "serviceable": true,
      "sha512": "sha512-ratu44uTIHgeBeI0dE8DWvmXVBSo4u7ozRZZHOMmK/JPpYyo0dAfgSiHlpiObMQ5lEtEyIXA40sKRYg5J6A8uQ==",
      "path": "system.buffers/4.3.0",
      "hashPath": "system.buffers.4.3.0.nupkg.sha512"
    },
    "System.Collections/4.3.0": {
      "type": "package",
      "serviceable": true,
      "sha512": "sha512-3Dcj85/TBdVpL5Zr+gEEBUuFe2icOnLalmEh9hfck1PTYbbyWuZgh4fmm2ysCLTrqLQw6t3TgTyJ+VLp+Qb+Lw==",
      "path": "system.collections/4.3.0",
      "hashPath": "system.collections.4.3.0.nupkg.sha512"
    },
    "System.Collections.Concurrent/4.3.0": {
      "type": "package",
      "serviceable": true,
      "sha512": "sha512-ztl69Xp0Y/UXCL+3v3tEU+lIy+bvjKNUmopn1wep/a291pVPK7dxBd6T7WnlQqRog+d1a/hSsgRsmFnIBKTPLQ==",
      "path": "system.collections.concurrent/4.3.0",
      "hashPath": "system.collections.concurrent.4.3.0.nupkg.sha512"
    },
    "System.Collections.Immutable/1.5.0": {
      "type": "package",
      "serviceable": true,
      "sha512": "sha512-EXKiDFsChZW0RjrZ4FYHu9aW6+P4MCgEDCklsVseRfhoO0F+dXeMSsMRAlVXIo06kGJ/zv+2w1a2uc2+kxxSaQ==",
      "path": "system.collections.immutable/1.5.0",
      "hashPath": "system.collections.immutable.1.5.0.nupkg.sha512"
    },
    "System.ComponentModel/4.0.1": {
      "type": "package",
      "serviceable": true,
      "sha512": "sha512-oBZFnm7seFiVfugsIyOvQCWobNZs7FzqDV/B7tx20Ep/l3UUFCPDkdTnCNaJZTU27zjeODmy2C/cP60u3D4c9w==",
      "path": "system.componentmodel/4.0.1",
      "hashPath": "system.componentmodel.4.0.1.nupkg.sha512"
    },
    "System.Console/4.3.0": {
      "type": "package",
      "serviceable": true,
      "sha512": "sha512-DHDrIxiqk1h03m6khKWV2X8p/uvN79rgSqpilL6uzpmSfxfU5ng8VcPtW4qsDsQDHiTv6IPV9TmD5M/vElPNLg==",
      "path": "system.console/4.3.0",
      "hashPath": "system.console.4.3.0.nupkg.sha512"
    },
    "System.Diagnostics.Debug/4.3.0": {
      "type": "package",
      "serviceable": true,
      "sha512": "sha512-ZUhUOdqmaG5Jk3Xdb8xi5kIyQYAA4PnTNlHx1mu9ZY3qv4ELIdKbnL/akbGaKi2RnNUWaZsAs31rvzFdewTj2g==",
      "path": "system.diagnostics.debug/4.3.0",
      "hashPath": "system.diagnostics.debug.4.3.0.nupkg.sha512"
    },
    "System.Diagnostics.FileVersionInfo/4.3.0": {
      "type": "package",
      "serviceable": true,
      "sha512": "sha512-omCF64wzQ3Q2CeIqkD6lmmxeMZtGHUmzgFMPjfVaOsyqpR66p/JaZzManMw1s33osoAb5gqpncsjie67+yUPHQ==",
      "path": "system.diagnostics.fileversioninfo/4.3.0",
      "hashPath": "system.diagnostics.fileversioninfo.4.3.0.nupkg.sha512"
    },
    "System.Diagnostics.Process/4.3.0": {
      "type": "package",
      "serviceable": true,
      "sha512": "sha512-J0wOX07+QASQblsfxmIMFc9Iq7KTXYL3zs2G/Xc704Ylv3NpuVdo6gij6V3PGiptTxqsK0K7CdXenRvKUnkA2g==",
      "path": "system.diagnostics.process/4.3.0",
      "hashPath": "system.diagnostics.process.4.3.0.nupkg.sha512"
    },
    "System.Diagnostics.StackTrace/4.3.0": {
      "type": "package",
      "serviceable": true,
      "sha512": "sha512-BiHg0vgtd35/DM9jvtaC1eKRpWZxr0gcQd643ABG7GnvSlf5pOkY2uyd42mMOJoOmKvnpNj0F4tuoS1pacTwYw==",
      "path": "system.diagnostics.stacktrace/4.3.0",
      "hashPath": "system.diagnostics.stacktrace.4.3.0.nupkg.sha512"
    },
    "System.Diagnostics.Tools/4.3.0": {
      "type": "package",
      "serviceable": true,
      "sha512": "sha512-UUvkJfSYJMM6x527dJg2VyWPSRqIVB0Z7dbjHst1zmwTXz5CcXSYJFWRpuigfbO1Lf7yfZiIaEUesfnl/g5EyA==",
      "path": "system.diagnostics.tools/4.3.0",
      "hashPath": "system.diagnostics.tools.4.3.0.nupkg.sha512"
    },
    "System.Diagnostics.Tracing/4.3.0": {
      "type": "package",
      "serviceable": true,
      "sha512": "sha512-rswfv0f/Cqkh78rA5S8eN8Neocz234+emGCtTF3lxPY96F+mmmUen6tbn0glN6PMvlKQb9bPAY5e9u7fgPTkKw==",
      "path": "system.diagnostics.tracing/4.3.0",
      "hashPath": "system.diagnostics.tracing.4.3.0.nupkg.sha512"
    },
    "System.Dynamic.Runtime/4.3.0": {
      "type": "package",
      "serviceable": true,
      "sha512": "sha512-SNVi1E/vfWUAs/WYKhE9+qlS6KqK0YVhnlT0HQtr8pMIA8YX3lwy3uPMownDwdYISBdmAF/2holEIldVp85Wag==",
      "path": "system.dynamic.runtime/4.3.0",
      "hashPath": "system.dynamic.runtime.4.3.0.nupkg.sha512"
    },
    "System.Globalization/4.3.0": {
      "type": "package",
      "serviceable": true,
      "sha512": "sha512-kYdVd2f2PAdFGblzFswE4hkNANJBKRmsfa2X5LG2AcWE1c7/4t0pYae1L8vfZ5xvE2nK/R9JprtToA61OSHWIg==",
      "path": "system.globalization/4.3.0",
      "hashPath": "system.globalization.4.3.0.nupkg.sha512"
    },
    "System.Globalization.Calendars/4.3.0": {
      "type": "package",
      "serviceable": true,
      "sha512": "sha512-GUlBtdOWT4LTV3I+9/PJW+56AnnChTaOqqTLFtdmype/L500M2LIyXgmtd9X2P2VOkmJd5c67H5SaC2QcL1bFA==",
      "path": "system.globalization.calendars/4.3.0",
      "hashPath": "system.globalization.calendars.4.3.0.nupkg.sha512"
    },
    "System.IO/4.3.0": {
      "type": "package",
      "serviceable": true,
      "sha512": "sha512-3qjaHvxQPDpSOYICjUoTsmoq5u6QJAFRUITgeT/4gqkF1bajbSmb1kwSxEA8AHlofqgcKJcM8udgieRNhaJ5Cg==",
      "path": "system.io/4.3.0",
      "hashPath": "system.io.4.3.0.nupkg.sha512"
    },
    "System.IO.Compression/4.3.0": {
      "type": "package",
      "serviceable": true,
      "sha512": "sha512-YHndyoiV90iu4iKG115ibkhrG+S3jBm8Ap9OwoUAzO5oPDAWcr0SFwQFm0HjM8WkEZWo0zvLTyLmbvTkW1bXgg==",
      "path": "system.io.compression/4.3.0",
      "hashPath": "system.io.compression.4.3.0.nupkg.sha512"
    },
    "System.IO.FileSystem/4.3.0": {
      "type": "package",
      "serviceable": true,
      "sha512": "sha512-3wEMARTnuio+ulnvi+hkRNROYwa1kylvYahhcLk4HSoVdl+xxTFVeVlYOfLwrDPImGls0mDqbMhrza8qnWPTdA==",
      "path": "system.io.filesystem/4.3.0",
      "hashPath": "system.io.filesystem.4.3.0.nupkg.sha512"
    },
    "System.IO.FileSystem.Primitives/4.3.0": {
      "type": "package",
      "serviceable": true,
      "sha512": "sha512-6QOb2XFLch7bEc4lIcJH49nJN2HV+OC3fHDgsLVsBVBk3Y4hFAnOBGzJ2lUu7CyDDFo9IBWkSsnbkT6IBwwiMw==",
      "path": "system.io.filesystem.primitives/4.3.0",
      "hashPath": "system.io.filesystem.primitives.4.3.0.nupkg.sha512"
    },
    "System.Linq/4.3.0": {
      "type": "package",
      "serviceable": true,
      "sha512": "sha512-5DbqIUpsDp0dFftytzuMmc0oeMdQwjcP/EWxsksIz/w1TcFRkZ3yKKz0PqiYFMmEwPSWw+qNVqD7PJ889JzHbw==",
      "path": "system.linq/4.3.0",
      "hashPath": "system.linq.4.3.0.nupkg.sha512"
    },
    "System.Linq.Expressions/4.3.0": {
      "type": "package",
      "serviceable": true,
      "sha512": "sha512-PGKkrd2khG4CnlyJwxwwaWWiSiWFNBGlgXvJpeO0xCXrZ89ODrQ6tjEWS/kOqZ8GwEOUATtKtzp1eRgmYNfclg==",
      "path": "system.linq.expressions/4.3.0",
      "hashPath": "system.linq.expressions.4.3.0.nupkg.sha512"
    },
    "System.ObjectModel/4.3.0": {
      "type": "package",
      "serviceable": true,
      "sha512": "sha512-bdX+80eKv9bN6K4N+d77OankKHGn6CH711a6fcOpMQu2Fckp/Ft4L/kW9WznHpyR0NRAvJutzOMHNNlBGvxQzQ==",
      "path": "system.objectmodel/4.3.0",
      "hashPath": "system.objectmodel.4.3.0.nupkg.sha512"
    },
    "System.Reflection/4.3.0": {
      "type": "package",
      "serviceable": true,
      "sha512": "sha512-KMiAFoW7MfJGa9nDFNcfu+FpEdiHpWgTcS2HdMpDvt9saK3y/G4GwprPyzqjFH9NTaGPQeWNHU+iDlDILj96aQ==",
      "path": "system.reflection/4.3.0",
      "hashPath": "system.reflection.4.3.0.nupkg.sha512"
    },
    "System.Reflection.Emit/4.3.0": {
      "type": "package",
      "serviceable": true,
      "sha512": "sha512-228FG0jLcIwTVJyz8CLFKueVqQK36ANazUManGaJHkO0icjiIypKW7YLWLIWahyIkdh5M7mV2dJepllLyA1SKg==",
      "path": "system.reflection.emit/4.3.0",
      "hashPath": "system.reflection.emit.4.3.0.nupkg.sha512"
    },
    "System.Reflection.Emit.ILGeneration/4.3.0": {
      "type": "package",
      "serviceable": true,
      "sha512": "sha512-59tBslAk9733NXLrUJrwNZEzbMAcu8k344OYo+wfSVygcgZ9lgBdGIzH/nrg3LYhXceynyvTc8t5/GD4Ri0/ng==",
      "path": "system.reflection.emit.ilgeneration/4.3.0",
      "hashPath": "system.reflection.emit.ilgeneration.4.3.0.nupkg.sha512"
    },
    "System.Reflection.Emit.Lightweight/4.3.0": {
      "type": "package",
      "serviceable": true,
      "sha512": "sha512-oadVHGSMsTmZsAF864QYN1t1QzZjIcuKU3l2S9cZOwDdDueNTrqq1yRj7koFfIGEnKpt6NjpL3rOzRhs4ryOgA==",
      "path": "system.reflection.emit.lightweight/4.3.0",
      "hashPath": "system.reflection.emit.lightweight.4.3.0.nupkg.sha512"
    },
    "System.Reflection.Extensions/4.3.0": {
      "type": "package",
      "serviceable": true,
      "sha512": "sha512-rJkrJD3kBI5B712aRu4DpSIiHRtr6QlfZSQsb0hYHrDCZORXCFjQfoipo2LaMUHoT9i1B7j7MnfaEKWDFmFQNQ==",
      "path": "system.reflection.extensions/4.3.0",
      "hashPath": "system.reflection.extensions.4.3.0.nupkg.sha512"
    },
    "System.Reflection.Metadata/1.6.0": {
      "type": "package",
      "serviceable": true,
      "sha512": "sha512-COC1aiAJjCoA5GBF+QKL2uLqEBew4JsCkQmoHKbN3TlOZKa2fKLz5CpiRQKDz0RsAOEGsVKqOD5bomsXq/4STQ==",
      "path": "system.reflection.metadata/1.6.0",
      "hashPath": "system.reflection.metadata.1.6.0.nupkg.sha512"
    },
    "System.Reflection.Primitives/4.3.0": {
      "type": "package",
      "serviceable": true,
      "sha512": "sha512-5RXItQz5As4xN2/YUDxdpsEkMhvw3e6aNveFXUn4Hl/udNTCNhnKp8lT9fnc3MhvGKh1baak5CovpuQUXHAlIA==",
      "path": "system.reflection.primitives/4.3.0",
      "hashPath": "system.reflection.primitives.4.3.0.nupkg.sha512"
    },
    "System.Reflection.TypeExtensions/4.3.0": {
      "type": "package",
      "serviceable": true,
      "sha512": "sha512-7u6ulLcZbyxB5Gq0nMkQttcdBTx57ibzw+4IOXEfR+sXYQoHvjW5LTLyNr8O22UIMrqYbchJQJnos4eooYzYJA==",
      "path": "system.reflection.typeextensions/4.3.0",
      "hashPath": "system.reflection.typeextensions.4.3.0.nupkg.sha512"
    },
    "System.Resources.ResourceManager/4.3.0": {
      "type": "package",
      "serviceable": true,
      "sha512": "sha512-/zrcPkkWdZmI4F92gL/TPumP98AVDu/Wxr3CSJGQQ+XN6wbRZcyfSKVoPo17ilb3iOr0cCRqJInGwNMolqhS8A==",
      "path": "system.resources.resourcemanager/4.3.0",
      "hashPath": "system.resources.resourcemanager.4.3.0.nupkg.sha512"
    },
    "System.Runtime/4.3.0": {
      "type": "package",
      "serviceable": true,
      "sha512": "sha512-JufQi0vPQ0xGnAczR13AUFglDyVYt4Kqnz1AZaiKZ5+GICq0/1MH/mO/eAJHt/mHW1zjKBJd7kV26SrxddAhiw==",
      "path": "system.runtime/4.3.0",
      "hashPath": "system.runtime.4.3.0.nupkg.sha512"
    },
    "System.Runtime.Extensions/4.3.0": {
      "type": "package",
      "serviceable": true,
      "sha512": "sha512-guW0uK0fn5fcJJ1tJVXYd7/1h5F+pea1r7FLSOz/f8vPEqbR2ZAknuRDvTQ8PzAilDveOxNjSfr0CHfIQfFk8g==",
      "path": "system.runtime.extensions/4.3.0",
      "hashPath": "system.runtime.extensions.4.3.0.nupkg.sha512"
    },
    "System.Runtime.Handles/4.3.0": {
      "type": "package",
      "serviceable": true,
      "sha512": "sha512-OKiSUN7DmTWeYb3l51A7EYaeNMnvxwE249YtZz7yooT4gOZhmTjIn48KgSsw2k2lYdLgTKNJw/ZIfSElwDRVgg==",
      "path": "system.runtime.handles/4.3.0",
      "hashPath": "system.runtime.handles.4.3.0.nupkg.sha512"
    },
    "System.Runtime.InteropServices/4.3.0": {
      "type": "package",
      "serviceable": true,
      "sha512": "sha512-uv1ynXqiMK8mp1GM3jDqPCFN66eJ5w5XNomaK2XD+TuCroNTLFGeZ+WCmBMcBDyTFKou3P6cR6J/QsaqDp7fGQ==",
      "path": "system.runtime.interopservices/4.3.0",
      "hashPath": "system.runtime.interopservices.4.3.0.nupkg.sha512"
    },
    "System.Runtime.InteropServices.RuntimeInformation/4.0.0": {
      "type": "package",
      "serviceable": true,
      "sha512": "sha512-hWPhJxc453RCa8Z29O91EmfGeZIHX1ZH2A8L6lYQVSaKzku2DfArSfMEb1/MYYzPQRJZeu0c9dmYeJKxW5Fgng==",
      "path": "system.runtime.interopservices.runtimeinformation/4.0.0",
      "hashPath": "system.runtime.interopservices.runtimeinformation.4.0.0.nupkg.sha512"
    },
    "System.Runtime.Numerics/4.3.0": {
      "type": "package",
      "serviceable": true,
      "sha512": "sha512-yMH+MfdzHjy17l2KESnPiF2dwq7T+xLnSJar7slyimAkUh/gTrS9/UQOtv7xarskJ2/XDSNvfLGOBQPjL7PaHQ==",
      "path": "system.runtime.numerics/4.3.0",
      "hashPath": "system.runtime.numerics.4.3.0.nupkg.sha512"
    },
    "System.Runtime.Serialization.Formatters/4.3.0": {
      "type": "package",
      "serviceable": true,
      "sha512": "sha512-KT591AkTNFOTbhZlaeMVvfax3RqhH1EJlcwF50Wm7sfnBLuHiOeZRRKrr1ns3NESkM20KPZ5Ol/ueMq5vg4QoQ==",
      "path": "system.runtime.serialization.formatters/4.3.0",
      "hashPath": "system.runtime.serialization.formatters.4.3.0.nupkg.sha512"
    },
    "System.Runtime.Serialization.Primitives/4.3.0": {
      "type": "package",
      "serviceable": true,
      "sha512": "sha512-Wz+0KOukJGAlXjtKr+5Xpuxf8+c8739RI1C+A2BoQZT+wMCCoMDDdO8/4IRHfaVINqL78GO8dW8G2lW/e45Mcw==",
      "path": "system.runtime.serialization.primitives/4.3.0",
      "hashPath": "system.runtime.serialization.primitives.4.3.0.nupkg.sha512"
    },
    "System.Security.AccessControl/4.4.0": {
      "type": "package",
      "serviceable": true,
      "sha512": "sha512-2NRFPX/V81ucKQmqNgGBZrKGH/5ejsvivSGMRum0SMgPnJxwhuNkzVS1+7gC3R2X0f57CtwrPrXPPSe6nOp82g==",
      "path": "system.security.accesscontrol/4.4.0",
      "hashPath": "system.security.accesscontrol.4.4.0.nupkg.sha512"
    },
    "System.Security.Cryptography.Algorithms/4.3.0": {
      "type": "package",
      "serviceable": true,
      "sha512": "sha512-W1kd2Y8mYSCgc3ULTAZ0hOP2dSdG5YauTb1089T0/kRcN2MpSAW1izOFROrJgxSlMn3ArsgHXagigyi+ibhevg==",
      "path": "system.security.cryptography.algorithms/4.3.0",
      "hashPath": "system.security.cryptography.algorithms.4.3.0.nupkg.sha512"
    },
    "System.Security.Cryptography.Cng/4.3.0": {
      "type": "package",
      "serviceable": true,
      "sha512": "sha512-03idZOqFlsKRL4W+LuCpJ6dBYDUWReug6lZjBa3uJWnk5sPCUXckocevTaUA8iT/MFSrY/2HXkOt753xQ/cf8g==",
      "path": "system.security.cryptography.cng/4.3.0",
      "hashPath": "system.security.cryptography.cng.4.3.0.nupkg.sha512"
    },
    "System.Security.Cryptography.Csp/4.3.0": {
      "type": "package",
      "serviceable": true,
      "sha512": "sha512-X4s/FCkEUnRGnwR3aSfVIkldBmtURMhmexALNTwpjklzxWU7yjMk7GHLKOZTNkgnWnE0q7+BCf9N2LVRWxewaA==",
      "path": "system.security.cryptography.csp/4.3.0",
      "hashPath": "system.security.cryptography.csp.4.3.0.nupkg.sha512"
    },
    "System.Security.Cryptography.Encoding/4.3.0": {
      "type": "package",
      "serviceable": true,
      "sha512": "sha512-1DEWjZZly9ae9C79vFwqaO5kaOlI5q+3/55ohmq/7dpDyDfc8lYe7YVxJUZ5MF/NtbkRjwFRo14yM4OEo9EmDw==",
      "path": "system.security.cryptography.encoding/4.3.0",
      "hashPath": "system.security.cryptography.encoding.4.3.0.nupkg.sha512"
    },
    "System.Security.Cryptography.OpenSsl/4.3.0": {
      "type": "package",
      "serviceable": true,
      "sha512": "sha512-h4CEgOgv5PKVF/HwaHzJRiVboL2THYCou97zpmhjghx5frc7fIvlkY1jL+lnIQyChrJDMNEXS6r7byGif8Cy4w==",
      "path": "system.security.cryptography.openssl/4.3.0",
      "hashPath": "system.security.cryptography.openssl.4.3.0.nupkg.sha512"
    },
    "System.Security.Cryptography.Primitives/4.3.0": {
      "type": "package",
      "serviceable": true,
      "sha512": "sha512-7bDIyVFNL/xKeFHjhobUAQqSpJq9YTOpbEs6mR233Et01STBMXNAc/V+BM6dwYGc95gVh/Zf+iVXWzj3mE8DWg==",
      "path": "system.security.cryptography.primitives/4.3.0",
      "hashPath": "system.security.cryptography.primitives.4.3.0.nupkg.sha512"
    },
    "System.Security.Cryptography.ProtectedData/4.3.0": {
      "type": "package",
      "serviceable": true,
      "sha512": "sha512-qBUHUk7IqrPHY96THHTa1akCxw0GsNFpsk3XFHbi0A0tMUDBpQprtY1Tbl6yaS1x4c96ilcXU8PocYtmSmkaQQ==",
      "path": "system.security.cryptography.protecteddata/4.3.0",
      "hashPath": "system.security.cryptography.protecteddata.4.3.0.nupkg.sha512"
    },
    "System.Security.Cryptography.X509Certificates/4.3.0": {
      "type": "package",
      "serviceable": true,
      "sha512": "sha512-t2Tmu6Y2NtJ2um0RtcuhP7ZdNNxXEgUm2JeoA/0NvlMjAhKCnM1NX07TDl3244mVp3QU6LPEhT3HTtH1uF7IYw==",
      "path": "system.security.cryptography.x509certificates/4.3.0",
      "hashPath": "system.security.cryptography.x509certificates.4.3.0.nupkg.sha512"
    },
    "System.Security.Principal.Windows/4.4.0": {
      "type": "package",
      "serviceable": true,
      "sha512": "sha512-pP+AOzt1o3jESOuLmf52YQTF7H3Ng9hTnrOESQiqsnl2IbBh1HInsAMHYtoh75iUYV0OIkHmjvveraYB6zM97w==",
      "path": "system.security.principal.windows/4.4.0",
      "hashPath": "system.security.principal.windows.4.4.0.nupkg.sha512"
    },
    "System.Text.Encoding/4.3.0": {
      "type": "package",
      "serviceable": true,
      "sha512": "sha512-BiIg+KWaSDOITze6jGQynxg64naAPtqGHBwDrLaCtixsa5bKiR8dpPOHA7ge3C0JJQizJE+sfkz1wV+BAKAYZw==",
      "path": "system.text.encoding/4.3.0",
      "hashPath": "system.text.encoding.4.3.0.nupkg.sha512"
    },
    "System.Text.Encoding.CodePages/4.3.0": {
      "type": "package",
      "serviceable": true,
      "sha512": "sha512-IRiEFUa5b/Gs5Egg8oqBVoywhtOeaO2KOx3j0RfcYY/raxqBuEK7NXRDgOwtYM8qbi+7S4RPXUbNt+ZxyY0/NQ==",
      "path": "system.text.encoding.codepages/4.3.0",
      "hashPath": "system.text.encoding.codepages.4.3.0.nupkg.sha512"
    },
    "System.Text.Encoding.Extensions/4.3.0": {
      "type": "package",
      "serviceable": true,
      "sha512": "sha512-YVMK0Bt/A43RmwizJoZ22ei2nmrhobgeiYwFzC4YAN+nue8RF6djXDMog0UCn+brerQoYVyaS+ghy9P/MUVcmw==",
      "path": "system.text.encoding.extensions/4.3.0",
      "hashPath": "system.text.encoding.extensions.4.3.0.nupkg.sha512"
    },
    "System.Text.RegularExpressions/4.3.0": {
      "type": "package",
      "serviceable": true,
      "sha512": "sha512-RpT2DA+L660cBt1FssIE9CAGpLFdFPuheB7pLpKpn6ZXNby7jDERe8Ua/Ne2xGiwLVG2JOqziiaVCGDon5sKFA==",
      "path": "system.text.regularexpressions/4.3.0",
      "hashPath": "system.text.regularexpressions.4.3.0.nupkg.sha512"
    },
    "System.Threading/4.3.0": {
      "type": "package",
      "serviceable": true,
      "sha512": "sha512-VkUS0kOBcUf3Wwm0TSbrevDDZ6BlM+b/HRiapRFWjM5O0NS0LviG0glKmFK+hhPDd1XFeSdU1GmlLhb2CoVpIw==",
      "path": "system.threading/4.3.0",
      "hashPath": "system.threading.4.3.0.nupkg.sha512"
    },
    "System.Threading.Tasks/4.3.0": {
      "type": "package",
      "serviceable": true,
      "sha512": "sha512-LbSxKEdOUhVe8BezB/9uOGGppt+nZf6e1VFyw6v3DN6lqitm0OSn2uXMOdtP0M3W4iMcqcivm2J6UgqiwwnXiA==",
      "path": "system.threading.tasks/4.3.0",
      "hashPath": "system.threading.tasks.4.3.0.nupkg.sha512"
    },
    "System.Threading.Tasks.Extensions/4.3.0": {
      "type": "package",
      "serviceable": true,
      "sha512": "sha512-npvJkVKl5rKXrtl1Kkm6OhOUaYGEiF9wFbppFRWSMoApKzt2PiPHT2Bb8a5sAWxprvdOAtvaARS9QYMznEUtug==",
      "path": "system.threading.tasks.extensions/4.3.0",
      "hashPath": "system.threading.tasks.extensions.4.3.0.nupkg.sha512"
    },
    "System.Threading.Tasks.Parallel/4.3.0": {
      "type": "package",
      "serviceable": true,
      "sha512": "sha512-cbjBNZHf/vQCfcdhzx7knsiygoCKgxL8mZOeocXZn5gWhCdzHIq6bYNKWX0LAJCWYP7bds4yBK8p06YkP0oa0g==",
      "path": "system.threading.tasks.parallel/4.3.0",
      "hashPath": "system.threading.tasks.parallel.4.3.0.nupkg.sha512"
    },
    "System.Threading.Thread/4.3.0": {
      "type": "package",
      "serviceable": true,
      "sha512": "sha512-OHmbT+Zz065NKII/ZHcH9XO1dEuLGI1L2k7uYss+9C1jLxTC9kTZZuzUOyXHayRk+dft9CiDf3I/QZ0t8JKyBQ==",
      "path": "system.threading.thread/4.3.0",
      "hashPath": "system.threading.thread.4.3.0.nupkg.sha512"
    },
    "System.Threading.ThreadPool/4.3.0": {
      "type": "package",
      "serviceable": true,
      "sha512": "sha512-k/+g4b7vjdd4aix83sTgC9VG6oXYKAktSfNIJUNGxPEj7ryEOfzHHhfnmsZvjxawwcD9HyWXKCXmPjX8U4zeSw==",
      "path": "system.threading.threadpool/4.3.0",
      "hashPath": "system.threading.threadpool.4.3.0.nupkg.sha512"
    },
    "System.ValueTuple/4.3.0": {
      "type": "package",
      "serviceable": true,
      "sha512": "sha512-cNLEvBX3d6MMQRZe3SMFNukVbitDAEpVZO17qa0/2FHxZ7Y7PpFRpr6m2615XYM/tYYYf0B+WyHNujqIw8Luwg==",
      "path": "system.valuetuple/4.3.0",
      "hashPath": "system.valuetuple.4.3.0.nupkg.sha512"
    },
    "System.Xml.ReaderWriter/4.3.0": {
      "type": "package",
      "serviceable": true,
      "sha512": "sha512-GrprA+Z0RUXaR4N7/eW71j1rgMnEnEVlgii49GZyAjTH7uliMnrOU3HNFBr6fEDBCJCIdlVNq9hHbaDR621XBA==",
      "path": "system.xml.readerwriter/4.3.0",
      "hashPath": "system.xml.readerwriter.4.3.0.nupkg.sha512"
    },
    "System.Xml.XDocument/4.3.0": {
      "type": "package",
      "serviceable": true,
      "sha512": "sha512-5zJ0XDxAIg8iy+t4aMnQAu0MqVbqyvfoUVl1yDV61xdo3Vth45oA2FoY4pPkxYAH5f8ixpmTqXeEIya95x0aCQ==",
      "path": "system.xml.xdocument/4.3.0",
      "hashPath": "system.xml.xdocument.4.3.0.nupkg.sha512"
    },
    "System.Xml.XmlDocument/4.3.0": {
      "type": "package",
      "serviceable": true,
      "sha512": "sha512-lJ8AxvkX7GQxpC6GFCeBj8ThYVyQczx2+f/cWHJU8tjS7YfI6Cv6bon70jVEgs2CiFbmmM8b9j1oZVx0dSI2Ww==",
      "path": "system.xml.xmldocument/4.3.0",
      "hashPath": "system.xml.xmldocument.4.3.0.nupkg.sha512"
    },
    "System.Xml.XPath/4.3.0": {
      "type": "package",
      "serviceable": true,
      "sha512": "sha512-v1JQ5SETnQusqmS3RwStF7vwQ3L02imIzl++sewmt23VGygix04pEH+FCj1yWb+z4GDzKiljr1W7Wfvrx0YwgA==",
      "path": "system.xml.xpath/4.3.0",
      "hashPath": "system.xml.xpath.4.3.0.nupkg.sha512"
    },
    "System.Xml.XPath.XDocument/4.3.0": {
      "type": "package",
      "serviceable": true,
      "sha512": "sha512-jw9oHHEIVW53mHY9PgrQa98Xo2IZ0ZjrpdOTmtvk+Rvg4tq7dydmxdNqUvJ5YwjDqhn75mBXWttWjiKhWP53LQ==",
      "path": "system.xml.xpath.xdocument/4.3.0",
      "hashPath": "system.xml.xpath.xdocument.4.3.0.nupkg.sha512"
    },
    "Cake.Common/0.33.0": {
      "type": "project",
      "serviceable": false,
      "sha512": ""
    },
    "Cake.Core/0.33.0": {
      "type": "project",
      "serviceable": false,
      "sha512": ""
    },
    "Cake.NuGet/0.33.0": {
      "type": "project",
      "serviceable": false,
      "sha512": ""
    }
  }
}